# KIC.ID; RA; DEC; Kepler_Mag; Teff; Log_G; Metallicity; Radius; GCS Teff; GCS [Fe/H]; Dist; VMAG; Age; Age-; Age+;
     2837475     287.5484619      38.0821991       8.4829998    6444.0000000       4.0679998      -0.0610000       1.6990000    6516.2822266      -0.0600000     130.0000000       2.9400001       2.0000000       1.7000000       2.2000000
     3632418     287.3618164      38.7140198       8.2240000       0.0000000       0.0000000       0.0000000       0.0000000    6137.6215820      -0.1500000     113.0000000       2.9900000       2.8000000       2.5999999       3.0000000
     3633538     287.7829285      38.7801285       8.1049995       0.0000000       0.0000000       0.0000000       0.0000000    5296.6342773      -0.2500000      53.0000000       3.9300001      10.8999996       9.1999998      12.8000002
     3636606     288.8439331      38.7115593       7.6620002       0.0000000       0.0000000       0.0000000       0.0000000    6668.0659180      -0.1700000      73.0000000       3.3499999       1.5000000       0.7000000       1.9000000
     3641446     290.2465210      38.7899513       8.3690004       0.0000000       0.0000000       0.0000000       0.0000000    6561.4511719       0.0500000     228.0000000       1.5700001       1.2000000       1.1000000       1.3000000
     3733735     287.2580261      38.8998909       8.3680000    6442.0000000       4.0310001      -0.6250000       1.7819999    6546.3613281      -0.1600000     105.0000000       3.2500000       2.0999999       1.7000000       2.4000001
     3747220     291.5246887      38.8136406       8.0539999    6368.0000000       4.1180000      -0.3260000       1.5880001    6546.3613281       0.0500000     195.0000000       1.6500000       1.3000000       1.2000000       1.4000000
     4242575     285.1062927      39.3376884       7.8030000    6010.0000000       4.2430000      -0.1470000       1.3329999    6095.3701172       0.0200000     143.0000000       2.1300001       1.9000000       1.7000000       2.0000000
     4484238     296.4358215      39.5036583       8.5600004       0.0000000       0.0000000       0.0000000       0.0000000    6067.3632812      -0.0600000      96.0000000       3.7100000       3.8000000       3.3000000       4.5999999
     4491014     297.7750549      39.5276718       8.0939999    6184.0000000       3.8680000      -0.2060000       2.1789999    6324.1201172      -0.3100000      73.0000000       3.8199999       3.0000000       1.7000000       3.7000000
     4857678     297.1836548      39.9166603       7.0170002       0.0000000       0.0000000       0.0000000       0.0000000    6668.0659180      -0.1000000      52.0000000       3.4400001       1.1000000      99.9000015       1.9000000
     5164767     283.4757690      40.3237686       7.8379998       0.0000000       0.0000000       0.0000000       0.0000000    6729.7675781       0.0100000     220.0000000       1.1400000       1.0000000       0.9000000       1.1000000
     5371516     294.3653564      40.5888481       8.3710003    6050.0000000       4.1659999      -0.1110000       1.4750000    6180.1625977      -0.0500000     133.0000000       2.8000000       2.5000000       2.3000000       2.7000000
     5774694     286.0682373      41.0031700       8.3079996       0.0000000       0.0000000       0.0000000       0.0000000    5741.1655273      -0.1400000      55.0000000       4.6900001       8.3000002       4.1999998      10.8000002
     5816251     298.2190247      41.0805016       7.6620002       0.0000000       0.0000000       0.0000000       0.0000000    5929.2534180      -0.1900000      53.0000000       4.0900002       6.0000000       5.0999999       7.8000002
     5939450     283.5598450      41.2257881       7.3109999       0.0000000       0.0000000       0.0000000       0.0000000    6208.6899414      -0.2400000     104.0000000       2.2500000       2.0000000       1.9000000       2.0999999
     5954264     289.8633423      41.2237816       8.1619997    6722.0000000       4.1529999      -0.3860000       1.5430000    6934.2592773       0.1700000     177.0000000       1.9600000       1.1000000       1.0000000       1.2000000
     6106415     285.4153137      41.4900894       7.1789999       0.0000000       0.0000000       0.0000000       0.0000000    5970.3530273      -0.1700000      41.0000000       4.1199999       5.8000002       4.3000002       6.5999999
     6225718     297.3255615      41.5824585       7.5009999       0.0000000       0.0000000       0.0000000       0.0000000    6151.7690430      -0.1900000      53.0000000       3.9300001       4.0000000       2.9000001       4.8000002
     6267965     285.1330872      41.6842499       7.6999998       0.0000000       0.0000000       0.0000000       0.0000000    6652.7309570      -0.2000000      86.0000000       3.0599999       2.0000000       1.7000000       2.2000000
     6278762     289.7522888      41.6346016       8.7170000       0.0000000       0.0000000       0.0000000       0.0000000    5152.2851562      -0.4000000      36.0000000       6.0999999       0.3000000      99.9000015      10.6999998
     6442183     291.5803833      41.8701401       8.5200005       0.0000000       0.0000000       0.0000000       0.0000000    5584.7016602      -0.2900000      66.0000000       4.5000000      14.6999998      12.0000000      17.2000008
     6670812     284.3556519      42.1034584       7.2430000       0.0000000       0.0000000       0.0000000       0.0000000    6353.3090820      -0.4500000     111.0000000       2.0400000       1.8000000       1.7000000       1.9000000
     6759149     285.2089844      42.2525406       6.7859998       0.0000000       0.0000000       0.0000000       0.0000000    6137.6215820      -0.0700000      35.0000000       4.1300001       2.0999999      99.9000015       3.9000001
     6868666     293.4464111      42.3582687       7.8870001    5201.0000000       4.4920001       0.5100000       0.9270000    5420.0083008      -0.3100000      31.0000000       5.5999999      99.9000015      99.9000015      16.2999992
     7180968     284.5391235      42.7012596       8.3629999    6693.0000000       3.8870001      -0.2740000       2.1689999    6839.1171875       0.4200000     257.0000000       1.2800000       0.9000000       0.8000000       1.0000000
     7201012     291.9884949      42.7766418       7.7989998       0.0000000       0.0000000       0.0000000       0.0000000    5382.6972656      -0.3600000     109.0000000       2.6900001      99.9000015      99.9000015      99.9000015
     7502826     282.1980286      43.1952591       7.8130002    6352.0000000       4.2659998      -0.0050000       1.3130000    6576.5795898       0.0800000     186.0000000       1.5300000       1.2000000       1.1000000       1.3000000
     7510397     285.6641846      43.1174812       7.7709999    5972.0000000       4.1339998      -0.3530000       1.5319999    6123.5029297      -0.2000000     100.0000000       2.8800001       2.7000000       2.5999999       3.8000000
     7669848     286.8332825      43.3153191       7.3550000       0.0000000       0.0000000       0.0000000       0.0000000    6760.8286133      -0.0300000     166.0000000       1.2600000       1.0000000       0.9000000       1.1000000
     7798339     280.3958130      43.5497017       7.8639998    6679.0000000       3.4040000      -0.5590000       4.0869999    6902.3979492      -0.2800000     146.0000000       2.0699999       1.5000000       1.4000000       1.6000000
     7940546     283.0688171      43.7099113       7.3969998    5987.0000000       4.1700001      -0.1360000       1.4620000    6223.0014648      -0.1300000      84.0000000       2.8299999       2.5000000       2.4000001       2.7000000
     7970740     295.4401855      43.7476387       7.7770000    5231.0000000       4.4140000      -0.1790000       1.0270000    5296.6342773      -0.5900000      26.0000000       5.8699999      99.9000015      99.9000015      99.9000015
     8085683     287.0027771      43.9670982       7.6350002       0.0000000       0.0000000       0.0000000       0.0000000    6109.4204102      -0.0100000     134.0000000       2.0500000       1.8000000       1.7000000       1.9000000
     8214841     283.3710022      44.1291084       7.7490001    6220.0000000       3.9920001      -0.1290000       1.8550000    6426.8784180      -0.1000000      68.0000000       3.6500001       1.6000000       0.5000000       2.5000000
     8276777     280.6152344      44.2736015       8.1239996    5755.0000000       4.3169999       0.1180000       1.2010000    5727.9589844      -0.0700000      94.0000000       3.4000001       5.6999998       5.0999999       6.4000001
     8343931     281.2398682      44.3589592       8.2460003    6156.0000000       4.2379999       0.1370000       1.3490000    6295.0620117      -0.2700000     129.0000000       2.7800000       2.5000000       2.4000001       2.8000000
     8360349     289.9310303      44.3748283       8.6140003    6044.0000000       4.2110000      -0.0930000       1.3900000    6151.7690430      -0.0400000     168.0000000       2.5599999       2.4000001       2.0999999       2.5999999
     8379927     296.6720581      44.3485298       6.9610000    5763.0000000       4.2379999      -0.0970000       1.3260000    5956.6225586      -0.1100000      40.0000000       4.0599999       5.4000001       4.0999999       6.8000002
     8504443     295.1934814      44.5285187       7.7630000       0.0000000       0.0000000       0.0000000       0.0000000    6039.4848633      -0.1000000      79.0000000       3.3199999       3.3000000       3.0999999       5.0000000
     8561664     292.4861755      44.6896896       7.7810001    5993.0000000       4.1739998      -0.3470000       1.4570000    6165.9497070      -0.6900000      90.0000000       3.0500000       4.6999998       4.3000002       5.1999998
     8751420     291.0140686      44.9335403       6.9109998       0.0000000       0.0000000       0.0000000       0.0000000    5069.9062500      -0.3700000      58.0000000       3.2100000      99.9000015      99.9000015      99.9000015
     8931685     282.1511841      45.2617607       6.9749999       0.0000000       0.0000000       0.0000000       0.0000000    6823.3886719      -0.2400000      59.0000000       3.1099999       1.6000000       1.2000000       1.8000000
     9139163     284.0922241      45.5070190       8.3290005    6220.0000000       4.2810001      -0.1260000       1.2830000    6367.9536133       0.0600000     105.0000000       3.2700000       2.0999999       1.8000000       2.4000001
     9163520     295.2091064      45.5249405       5.0549998       0.0000000       0.0000000       0.0000000       0.0000000    6698.8457031       0.3700000      50.0000000       1.5800000       1.0000000       0.9000000       1.1000000
     9286638     294.1224060      45.7974510       7.3369999       0.0000000       0.0000000       0.0000000       0.0000000    6934.2592773       0.0600000     143.0000000       1.5599999       1.1000000       1.0000000       1.2000000
    10005473     289.2141113      46.9990807       5.9949999       0.0000000       0.0000000       0.0000000       0.0000000    6237.3496094      -0.2000000      42.0000000       2.8800001       2.5999999       2.5000000       2.7000000
    10068307     288.9779053      47.0612411       8.1789999    6052.0000000       4.1300001      -0.2140000       1.5440000    6081.3491211      -0.2500000     125.0000000       2.7500000       3.5999999       2.5000000       3.9000001
    10124866     284.5144348      47.1916504       7.8610001    5813.0000000       4.2420001      -0.1350000       1.3230000    5821.0336914      -0.3100000      50.0000000       4.3499999       8.3000002       7.0000000      11.3999996
    10291320     297.8307495      47.3772392       6.2210002       0.0000000       0.0000000       0.0000000       0.0000000    6745.2802734      -0.0300000      62.0000000       2.2100000       1.5000000       1.4000000       1.6000000
    10584656     284.5964355      47.8367615       7.6770000       0.0000000       0.0000000       0.0000000       0.0000000    6223.0014648      -0.2800000      57.0000000       3.9100001       3.5999999       2.4000001       4.4000001
    11037105     295.1890869      48.5125313       7.8410001    6547.0000000       3.9970000      -0.3910000       1.8680000    6622.1665039      -0.4000000     132.0000000       2.2800000       1.9000000       1.8000000       2.0000000
    11038851     295.8757324      48.5926895       8.6949997    5553.0000000       3.9619999      -0.2570000       1.8900000    5688.5307617       0.1300000      82.0000000       4.2100000       7.5000000       5.8000002       9.0000000
    11176926     283.6963501      48.8594017       5.8290000       0.0000000       0.0000000       0.0000000       0.0000000    6501.2963867      -0.0300000      55.0000000       2.0699999       1.5000000       1.4000000       1.6000000
    11253226     295.9151001      48.9289398       8.4379997    6468.0000000       4.1799998      -0.3380000       1.4740000    6622.1665039      -0.0600000     117.0000000       3.1300001       1.7000000       1.3000000       2.0000000
    11498538     286.9452209      49.4853706       7.3350000    6287.0000000       4.0359998      -0.2980000       1.7560000    6441.6928711      -0.0100000     140.0000000       1.6500000       1.3000000       1.2000000       1.4000000
    11506859     291.6082153      49.4652786       7.9029999       0.0000000       0.0000000       0.0000000       0.0000000    4688.1337891      -0.8000000      25.0000000       6.0200000      99.9000015      99.9000015      99.9000015
    11602073     286.7982483      49.6150894       8.3879995    6465.0000000       4.1259999       0.0520000       1.5790000    6576.5795898      -0.1100000     125.0000000       2.9100001       2.0000000       1.7000000       2.2000000
    11708170     289.3271484      49.8502312       7.2110000    6643.0000000       4.1490002      -0.3560000       1.5450000    6698.8457031      -0.2800000      79.0000000       2.7900000       2.0000000       1.9000000       2.0999999
    11813080     291.3738098      50.0708008       8.3009996    6146.0000000       4.1910000      -0.1600000       1.4330000    6309.5727539      -0.0800000     175.0000000       2.1400001       1.8000000       1.6000000       2.0000000
    11863728     291.6997375      50.1454811       7.4080000    5882.0000000       4.0409999      -0.3830000       1.7220000    6067.3632812      -0.3500000      75.0000000       3.0200000       4.1999998       4.0000000       4.5000000
    11866119     293.0105591      50.1815414       7.9860001       0.0000000       0.0000000       0.0000000       0.0000000    5675.4453125      -0.2700000      51.0000000       4.5300002      12.6000004      10.6999998      15.0000000
    11918630     294.1105652      50.2210884       4.4940000       0.0000000       0.0000000       0.0000000       0.0000000    6652.7309570      -0.0400000      18.0000000       3.1700001       1.6000000       1.0000000       1.9000000
    11976303     297.6996460      50.3555489       7.9510002       0.0000000       0.0000000       0.0000000       0.0000000    6591.7392578      -0.1100000      98.0000000       2.9800000       2.0000000       1.7000000       2.2000000
    12069424     295.4539795      50.5250702       5.8639998       0.0000000       0.0000000       0.0000000       0.0000000    5741.1655273       0.0500000      21.0000000       4.3600001       7.0999999       5.3000002       9.6999998
    12069449     295.4665833      50.5175209       6.0949998       0.0000000       0.0000000       0.0000000       0.0000000    5701.6430664       0.0500000      21.0000000       4.5999999       7.5999999       4.6999998       9.5000000
    12114816     293.7687988      50.6276283       8.2950001       0.0000000       0.0000000       0.0000000       0.0000000    5984.1152344      -0.2100000      95.0000000       3.4200001       5.4000001       4.8000002       6.0999999
    12169236     296.3764038      50.7727203       8.8319998       0.0000000       0.0000000       0.0000000       0.0000000    5223.9609375       0.0300000      45.0000000       5.7399998      99.9000015      99.9000015      15.1000004
    12258514     291.5919800      50.9872398       8.0769997    5808.0000000       4.3010001       0.0860000       1.2290000    5929.2534180      -0.0200000      81.0000000       3.6099999       3.9000001       3.5999999       6.1999998
    12363664     294.7637329      51.1045418       7.9790001       0.0000000       0.0000000       0.0000000       0.0000000    6123.5029297       0.0300000     126.0000000       2.5400000       2.2000000       2.0999999       2.3000000
    12453925     287.7529297      51.3621788       8.3360004    6255.0000000       4.1090002      -0.0290000       1.5980000    6426.8784180      -0.1400000     204.0000000       1.8200001       1.6000000       1.4000000       1.7000000
