%!PS-Adobe-3.0 EPSF-3.0
%%BoundingBox: 0 0 595 396
%%Title: Graphics produced by IDL
%%For: saskia@solar94.ph.bham.ac.uk, 
%%      /home/saskia/Kepler/Q1data/WG2ApJLetter
%%Creator: IDL Version 7.0.6 (linux x86_64 m64)
%%CreationDate: Tue Oct 13 13:08:54 2009
%%DocumentData: Clean7bit
%%Requirements: color
%%LanguageLevel: 1
%%PageOrder: Ascend
%%Pages: (atend)
%%DocumentNeededResources: (atend)
%%EndComments
%%BeginProlog
%+ prolog.ps -- Prolog for IDL generated PostScript files
%+ Copyright (c) 1988-2008 ITT Visual Information Solutions. All Rights Reserved.
%v 5
/$IDL_DICT 40 dict def $IDL_DICT begin /bdef { bind def } bind def /C
{currentpoint newpath moveto} bdef /CP {currentpoint} bdef /D {currentpoint
stroke moveto} bdef /F {closepath fill} bdef /K { setgray } bdef /M {moveto}
bdef /N {rmoveto} bdef /P {lineto} bdef /R {rlineto} bdef /S {gsave show
grestore} bdef /X {currentpoint pop} bdef /Z {gsave currentpoint lineto 20
setlinewidth 1 setlinecap stroke grestore} bdef /L0 {[] 0 setdash} bdef /L1
{[40 100] 0 setdash} bdef /L2 {[200 200] 0 setdash} bdef /L3 {[200 100 50
100] 0 setdash} bdef /L4 {[300 100 50 100 50 100 50 100] 0 setdash} bdef /L5
{[400 200] 0 setdash} bdef /STDFONT { findfont exch scalefont setfont } bdef
/ISOFONT { findfont dup length dict begin { 1 index /FID ne {def} {pop pop}
ifelse } forall /Encoding ISOLatin1Encoding def currentdict end /idltmpfont
exch definefont exch scalefont setfont } bdef /ISOBULLET { gsave /Helvetica
findfont exch scalefont setfont (\267) show currentpoint grestore moveto}
bdef /MITERLIMIT { 2.5 setmiterlimit } bdef end
%%EndProlog
%%Page: 0 1
%%PageRequirements: color
%%PageResources: (atend)
%%PageOrientation: Portrait
%%PageBoundingBox: 0 0 595 396
%%BeginPageSetup
$IDL_DICT begin 0.0283465 dup scale MITERLIMIT
%%IncludeResource: font Helvetica
423.333 /Helvetica STDFONT
%%EndPageSetup
50 setlinewidth L0 0.000 0.000 0.000 setrgbcolor 4440 2816 M 15228 0 R D
4440 2816 M 0 196 R D 4393 2251 M -70 -24 R -46 -70 R -24 -117 R 0 -70 R
24 -116 R 46 -71 R 70 -23 R 47 0 R 70 23 R 47 71 R 23 116 R 0 70 R -23 117 R
-47 70 R -70 24 R -47 0 R D 9516 2816 M 0 196 R D 9376 2251 M -234 0 R
-23 -211 R 23 24 R 70 23 R 70 0 R 71 -23 R 46 -47 R 24 -70 R 0 -47 R
-24 -70 R -46 -47 R -71 -23 R -70 0 R -70 23 R -23 24 R -24 47 R D
9703 2251 M -70 -24 R -47 -70 R -23 -117 R 0 -70 R 23 -116 R 47 -71 R
70 -23 R 47 0 R 70 23 R 47 71 R 23 116 R 0 70 R -23 117 R -47 70 R -70 24 R
-47 0 R D 14592 2816 M 0 196 R D 14008 2157 M 47 24 R 70 70 R 0 -491 R D
14545 2251 M -70 -24 R -46 -70 R -24 -117 R 0 -70 R 24 -116 R 46 -71 R
70 -23 R 47 0 R 70 23 R 47 71 R 23 116 R 0 70 R -23 117 R -47 70 R -70 24 R
-47 0 R D 15013 2251 M -70 -24 R -47 -70 R -23 -117 R 0 -70 R 23 -116 R
47 -71 R 70 -23 R 46 0 R 71 23 R 46 71 R 24 116 R 0 70 R -24 117 R -46 70 R
-71 24 R -46 0 R D 19668 2816 M 0 196 R D 19084 2157 M 47 24 R 70 70 R
0 -491 R D 19762 2251 M -234 0 R -23 -211 R 23 24 R 70 23 R 70 0 R 70 -23 R
47 -47 R 23 -70 R 0 -47 R -23 -70 R -47 -47 R -70 -23 R -70 0 R -70 23 R
-23 24 R -24 47 R D 20089 2251 M -70 -24 R -47 -70 R -23 -117 R 0 -70 R
23 -116 R 47 -71 R 70 -23 R 46 0 R 71 23 R 46 71 R 24 116 R 0 70 R -24 117 R
-46 70 R -71 24 R -46 0 R D 5455 2816 M 0 98 R D 6471 2816 M 0 98 R D
7486 2816 M 0 98 R D 8501 2816 M 0 98 R D 10531 2816 M 0 98 R D 11547 2816 M
0 98 R D 12562 2816 M 0 98 R D 13577 2816 M 0 98 R D 15607 2816 M 0 98 R D
16623 2816 M 0 98 R D 17638 2816 M 0 98 R D 18653 2816 M 0 98 R D
10221 1172 M -46 -327 R D 10245 1172 M -24 -140 R -23 -117 R -23 -70 R D
10478 1172 M -23 -93 R -47 -94 R D 10502 1172 M -24 -70 R -23 -47 R
-47 -70 R -46 -47 R -71 -46 R -46 -24 R -70 -23 R D 10151 1172 M 94 0 R D
10615 675 M 0 -202 R D 10615 617 M 44 44 R 29 14 R 43 0 R 29 -14 R 14 -44 R
0 -144 R D 10774 617 M 44 44 R 29 14 R 43 0 R 29 -14 R 15 -44 R 0 -144 R D
11208 675 M 0 -202 R D 11208 632 M -29 29 R -28 14 R -44 0 R -29 -14 R
-29 -29 R -14 -43 R 0 -29 R 14 -44 R 29 -29 R 29 -14 R 44 0 R 28 14 R
29 29 R D 11310 675 M 159 -202 R D 11469 675 M -159 -202 R D 11971 1429 M
0 -771 R D 11994 1429 M 0 -771 R D 11971 1429 M 163 0 R D 11971 658 M
163 0 R D 12368 1172 M -140 -514 R D 12391 1172 M -140 -514 R D 12368 1102 M
-23 -140 R 0 -70 R 46 -47 R 47 0 R 47 23 R 46 47 R 47 70 R D 12625 1172 M
-70 -257 R 0 -47 R 23 -23 R 70 0 R 47 47 R 23 46 R D 12648 1172 M -70 -257 R
0 -47 R 24 -23 R D 12835 1336 M 0 -491 R D 13162 1336 M 0 -491 R D
12835 1102 M 327 0 R D 13583 1172 M -257 -327 R D 13326 1172 M 257 0 R D
13326 845 M 257 0 R D 13863 1429 M 0 -771 R D 13887 1429 M 0 -771 R D
13723 1429 M 164 0 R D 13723 658 M 164 0 R D 4440 12592 M 15228 0 R D
4440 12592 M 0 -195 R D 9516 12592 M 0 -195 R D 14592 12592 M 0 -195 R D
19668 12592 M 0 -195 R D 5455 12592 M 0 -98 R D 6471 12592 M 0 -98 R D
7486 12592 M 0 -98 R D 8501 12592 M 0 -98 R D 10531 12592 M 0 -98 R D
11547 12592 M 0 -98 R D 12562 12592 M 0 -98 R D 13577 12592 M 0 -98 R D
15607 12592 M 0 -98 R D 16623 12592 M 0 -98 R D 17638 12592 M 0 -98 R D
18653 12592 M 0 -98 R D 4440 2816 M 0 9776 R D 4440 2816 M 305 0 R D
3938 3307 M -70 -24 R -47 -70 R -24 -117 R 0 -70 R 24 -116 R 47 -71 R
70 -23 R 46 0 R 71 23 R 46 71 R 24 116 R 0 70 R -24 117 R -46 70 R -71 24 R
-46 0 R D 4440 6075 M 305 0 R D 3611 6284 M -234 0 R -24 -210 R 24 23 R
70 23 R 70 0 R 70 -23 R 47 -47 R 23 -70 R 0 -47 R -23 -70 R -47 -46 R
-70 -24 R -70 0 R -70 24 R -24 23 R -23 47 R D 3938 6284 M -70 -23 R
-47 -71 R -24 -116 R 0 -71 R 24 -116 R 47 -70 R 70 -24 R 46 0 R 71 24 R
46 70 R 24 116 R 0 71 R -24 116 R -46 71 R -71 23 R -46 0 R D 4440 9333 M
305 0 R D 2933 9449 M 47 23 R 70 71 R 0 -491 R D 3470 9543 M -70 -24 R
-47 -70 R -23 -117 R 0 -70 R 23 -117 R 47 -70 R 70 -23 R 47 0 R 70 23 R
47 70 R 23 117 R 0 70 R -23 117 R -47 70 R -70 24 R -47 0 R D 3938 9543 M
-70 -24 R -47 -70 R -24 -117 R 0 -70 R 24 -117 R 47 -70 R 70 -23 R 46 0 R
71 23 R 46 70 R 24 117 R 0 70 R -24 117 R -46 70 R -71 24 R -46 0 R D
4440 12592 M 305 0 R D 2933 12497 M 47 23 R 70 70 R 0 -491 R D 3611 12590 M
-234 0 R -24 -210 R 24 23 R 70 23 R 70 0 R 70 -23 R 47 -47 R 23 -70 R
0 -47 R -23 -70 R -47 -46 R -70 -24 R -70 0 R -70 24 R -24 23 R -23 47 R D
3938 12590 M -70 -23 R -47 -70 R -24 -117 R 0 -70 R 24 -117 R 47 -70 R
70 -24 R 46 0 R 71 24 R 46 70 R 24 117 R 0 70 R -24 117 R -46 70 R -71 23 R
-46 0 R D 4440 3468 M 152 0 R D 4440 4120 M 152 0 R D 4440 4771 M 152 0 R D
4440 5423 M 152 0 R D 4440 6726 M 152 0 R D 4440 7378 M 152 0 R D
4440 8030 M 152 0 R D 4440 8682 M 152 0 R D 4440 9985 M 152 0 R D
4440 10637 M 152 0 R D 4440 11289 M 152 0 R D 4440 11940 M 152 0 R D
1823 4947 M 327 0 R D 1893 4947 M -47 -47 R -23 -47 R 0 -70 R 23 -47 R
47 -46 R 70 -24 R 47 0 R 70 24 R 47 46 R 23 47 R 0 70 R -23 47 R -47 47 R D
1823 5134 M 327 0 R D 1916 5134 M -70 70 R -23 46 R 0 70 R 23 47 R 70 24 R
234 0 R D 1916 5391 M -70 70 R -23 46 R 0 71 R 23 46 R 70 24 R 234 0 R D
1823 5835 M 514 0 R D 1893 5835 M -47 46 R -23 47 R 0 70 R 23 47 R 47 47 R
70 23 R 47 0 R 70 -23 R 47 -47 R 23 -47 R 0 -70 R -23 -47 R -47 -46 R D
1659 6279 M 491 0 R D 1659 6442 M 24 24 R -24 23 R -23 -23 R 23 -24 R D
1823 6466 M 327 0 R D 1659 6676 M 398 0 R 70 23 R 23 47 R 0 47 R D
1823 6606 M 0 163 R D 1823 6933 M 234 0 R 70 23 R 23 47 R 0 70 R -23 47 R
-70 70 R D 1823 7190 M 327 0 R D 1659 7634 M 491 0 R D 1893 7634 M -47 -47 R
-23 -47 R 0 -70 R 23 -46 R 47 -47 R 70 -23 R 47 0 R 70 23 R 47 47 R 23 46 R
0 70 R -23 47 R -47 47 R D 1963 7798 M 0 280 R -47 0 R -46 -23 R -24 -24 R
-23 -47 R 0 -70 R 23 -46 R 47 -47 R 70 -23 R 47 0 R 70 23 R 47 47 R 23 46 R
0 70 R -23 47 R -47 47 R D 1566 8615 M 771 0 R D 1566 8639 M 771 0 R D
1566 8615 M 0 164 R D 2337 8615 M 0 164 R D 1823 8943 M 514 0 R D
1893 8943 M -47 46 R -23 47 R 0 70 R 23 47 R 47 47 R 70 23 R 47 0 R 70 -23 R
47 -47 R 23 -47 R 0 -70 R -23 -47 R -47 -46 R D 1823 9387 M 514 0 R D
1893 9387 M -47 46 R -23 47 R 0 70 R 23 47 R 47 47 R 70 23 R 47 0 R 70 -23 R
47 -47 R 23 -47 R 0 -70 R -23 -47 R -47 -46 R D 1823 9831 M 327 0 R D
1916 9831 M -70 70 R -23 46 R 0 71 R 23 46 R 70 24 R 234 0 R D 1916 10088 M
-70 70 R -23 46 R 0 71 R 23 46 R 70 24 R 234 0 R D 1566 10648 M 771 0 R D
1566 10672 M 771 0 R D 1566 10508 M 0 164 R D 2337 10508 M 0 164 R D
19668 2816 M 0 9776 R D 19668 2816 M -304 0 R D 19668 6075 M -304 0 R D
19668 9333 M -304 0 R D 19668 12592 M -304 0 R D 19668 3468 M -152 0 R D
19668 4120 M -152 0 R D 19668 4771 M -152 0 R D 19668 5423 M -152 0 R D
19668 6726 M -152 0 R D 19668 7378 M -152 0 R D 19668 8030 M -152 0 R D
19668 8682 M -152 0 R D 19668 9985 M -152 0 R D 19668 10637 M -152 0 R D
19668 11289 M -152 0 R D 19668 11940 M -152 0 R D 5780 11494 M -6 34 R
-15 31 R -25 24 R -31 16 R -34 6 R -34 -6 R -31 -16 R -25 -24 R -16 -31 R
-5 -34 R 5 -35 R 16 -31 R 25 -24 R 31 -16 R 34 -5 R 34 5 R 31 16 R 25 24 R
15 31 R 6 35 R F
7395 8143 M -6 34 R -16 31 R -24 24 R -31 16 R -34 6 R -35 -6 R -31 -16 R
-24 -24 R -16 -31 R -5 -34 R 5 -35 R 16 -31 R 24 -24 R 31 -16 R 35 -5 R
34 5 R 31 16 R 24 24 R 16 31 R 6 35 R F
10288 4704 M -6 34 R -16 31 R -24 25 R -31 15 R -34 6 R -35 -6 R -31 -15 R
-24 -25 R -16 -31 R -5 -34 R 5 -35 R 16 -30 R 24 -25 R 31 -16 R 35 -5 R
34 5 R 31 16 R 24 25 R 16 30 R 6 35 R F
8081 8129 M -5 34 R -16 31 R -24 25 R -31 15 R -35 6 R -34 -6 R -31 -15 R
-24 -25 R -16 -31 R -6 -34 R 6 -35 R 16 -31 R 24 -24 R 31 -16 R 34 -5 R
35 5 R 31 16 R 24 24 R 16 31 R 5 35 R F
8378 5985 M -6 35 R -16 30 R -24 25 R -31 16 R -34 5 R -35 -5 R -31 -16 R
-24 -25 R -16 -30 R -5 -35 R 5 -34 R 16 -31 R 24 -25 R 31 -15 R 35 -6 R
34 6 R 31 15 R 24 25 R 16 31 R 6 34 R F
13336 4236 M -6 35 R -15 31 R -25 24 R -31 16 R -34 5 R -34 -5 R -31 -16 R
-25 -24 R -16 -31 R -5 -35 R 5 -34 R 16 -31 R 25 -24 R 31 -16 R 34 -6 R
34 6 R 31 16 R 25 24 R 15 31 R 6 34 R F
7886 7273 M -5 34 R -16 31 R -25 25 R -31 15 R -34 6 R -34 -6 R -31 -15 R
-25 -25 R -15 -31 R -6 -34 R 6 -34 R 15 -31 R 25 -25 R 31 -16 R 34 -5 R
34 5 R 31 16 R 25 25 R 16 31 R 5 34 R F
4551 2816 M -5 34 R -16 31 R -25 25 R -31 16 R -34 5 R 0 -111 R 111 0 R F
10653 7251 M -5 35 R -16 31 R -25 24 R -31 16 R -34 5 R -34 -5 R -31 -16 R
-25 -24 R -15 -31 R -6 -35 R 6 -34 R 15 -31 R 25 -24 R 31 -16 R 34 -6 R
34 6 R 31 16 R 25 24 R 16 31 R 5 34 R F
9493 5569 M -5 34 R -16 31 R -25 25 R -31 16 R -34 5 R -34 -5 R -31 -16 R
-25 -25 R -16 -31 R -5 -34 R 5 -34 R 16 -31 R 25 -25 R 31 -16 R 34 -5 R
34 5 R 31 16 R 25 25 R 16 31 R 5 34 R F
9276 5542 M -6 34 R -16 31 R -24 24 R -31 16 R -34 6 R -35 -6 R -31 -16 R
-24 -24 R -16 -31 R -5 -34 R 5 -35 R 16 -31 R 24 -24 R 31 -16 R 35 -5 R
34 5 R 31 16 R 24 24 R 16 31 R 6 35 R F
10238 7287 M -5 34 R -16 31 R -25 25 R -30 15 R -35 6 R -34 -6 R -31 -15 R
-25 -25 R -15 -31 R -6 -34 R 6 -35 R 15 -31 R 25 -24 R 31 -16 R 34 -5 R
35 5 R 30 16 R 25 24 R 16 31 R 5 35 R F
13551 3881 M -5 34 R -16 31 R -24 24 R -31 16 R -35 6 R -34 -6 R -31 -16 R
-24 -24 R -16 -31 R -6 -34 R 6 -35 R 16 -31 R 24 -24 R 31 -16 R 34 -5 R
35 5 R 31 16 R 24 24 R 16 31 R 5 35 R F
6728 8715 M -6 34 R -15 31 R -25 25 R -31 15 R -34 6 R -34 -6 R -31 -15 R
-25 -25 R -16 -31 R -5 -34 R 5 -34 R 16 -31 R 25 -25 R 31 -16 R 34 -5 R
34 5 R 31 16 R 25 25 R 15 31 R 6 34 R F
9361 6987 M -6 34 R -16 31 R -24 25 R -31 16 R -34 5 R -35 -5 R -31 -16 R
-24 -25 R -16 -31 R -5 -34 R 5 -34 R 16 -31 R 24 -25 R 31 -15 R 35 -6 R
34 6 R 31 15 R 24 25 R 16 31 R 6 34 R F
13631 4124 M -6 35 R -16 30 R -24 25 R -31 16 R -34 5 R -35 -5 R -31 -16 R
-24 -25 R -16 -30 R -5 -35 R 5 -34 R 16 -31 R 24 -25 R 31 -15 R 35 -6 R
34 6 R 31 15 R 24 25 R 16 31 R 6 34 R F
8974 7187 M -5 34 R -16 31 R -24 25 R -31 15 R -35 6 R -34 -6 R -31 -15 R
-24 -25 R -16 -31 R -6 -34 R 6 -34 R 16 -31 R 24 -25 R 31 -16 R 34 -5 R
35 5 R 31 16 R 24 25 R 16 31 R 5 34 R F
9715 6085 M -5 34 R -16 31 R -25 25 R -31 15 R -34 6 R -34 -6 R -31 -15 R
-25 -25 R -16 -31 R -5 -34 R 5 -34 R 16 -31 R 25 -25 R 31 -16 R 34 -5 R
34 5 R 31 16 R 25 25 R 16 31 R 5 34 R F
14505 4284 M -6 34 R -16 31 R -24 25 R -31 16 R -34 5 R -35 -5 R -31 -16 R
-24 -25 R -16 -31 R -5 -34 R 5 -34 R 16 -31 R 24 -25 R 31 -16 R 35 -5 R
34 5 R 31 16 R 24 25 R 16 31 R 6 34 R F
11124 4167 M -6 34 R -16 31 R -24 25 R -31 16 R -34 5 R -35 -5 R -31 -16 R
-24 -25 R -16 -31 R -5 -34 R 5 -34 R 16 -31 R 24 -25 R 31 -16 R 35 -5 R
34 5 R 31 16 R 24 25 R 16 31 R 6 34 R F
11492 4828 M -5 34 R -16 31 R -24 25 R -31 16 R -35 5 R -34 -5 R -31 -16 R
-24 -25 R -16 -31 R -6 -34 R 6 -34 R 16 -31 R 24 -25 R 31 -16 R 34 -5 R
35 5 R 31 16 R 24 25 R 16 31 R 5 34 R F
12199 5140 M -5 35 R -16 30 R -24 25 R -31 16 R -35 5 R -34 -5 R -31 -16 R
-25 -25 R -15 -30 R -6 -35 R 6 -34 R 15 -31 R 25 -25 R 31 -15 R 34 -6 R
35 6 R 31 15 R 24 25 R 16 31 R 5 34 R F
10010 5716 M -6 34 R -15 31 R -25 25 R -31 16 R -34 5 R -34 -5 R -31 -16 R
-25 -25 R -16 -31 R -5 -34 R 5 -34 R 16 -31 R 25 -25 R 31 -15 R 34 -6 R
34 6 R 31 15 R 25 25 R 15 31 R 6 34 R F
8203 5861 M -5 34 R -16 31 R -24 25 R -31 15 R -35 6 R -34 -6 R -31 -15 R
-24 -25 R -16 -31 R -6 -34 R 6 -35 R 16 -31 R 24 -24 R 31 -16 R 34 -5 R
35 5 R 31 16 R 24 24 R 16 31 R 5 35 R F
9341 6035 M -5 34 R -16 31 R -25 25 R -31 16 R -34 5 R -34 -5 R -31 -16 R
-25 -25 R -15 -31 R -6 -34 R 6 -34 R 15 -31 R 25 -25 R 31 -16 R 34 -5 R
34 5 R 31 16 R 25 25 R 16 31 R 5 34 R F
4551 2816 M -5 34 R -16 31 R -25 25 R -31 16 R -34 5 R 0 -111 R 111 0 R F
9589 6278 M -5 35 R -16 31 R -24 24 R -31 16 R -35 5 R -34 -5 R -31 -16 R
-24 -24 R -16 -31 R -6 -35 R 6 -34 R 16 -31 R 24 -24 R 31 -16 R 34 -6 R
35 6 R 31 16 R 24 24 R 16 31 R 5 34 R F
9852 6225 M -5 35 R -16 31 R -25 24 R -31 16 R -34 5 R -34 -5 R -31 -16 R
-25 -24 R -15 -31 R -6 -35 R 6 -34 R 15 -31 R 25 -25 R 31 -15 R 34 -6 R
34 6 R 31 15 R 25 25 R 16 31 R 5 34 R F
16793 4234 M -6 35 R -15 31 R -25 24 R -31 16 R -34 5 R -35 -5 R -31 -16 R
-24 -24 R -16 -31 R -5 -35 R 5 -34 R 16 -31 R 25 -24 R 30 -16 R 35 -6 R
34 6 R 31 16 R 25 24 R 15 31 R 6 34 R F
9747 5148 M -6 34 R -15 31 R -25 25 R -31 16 R -34 5 R -35 -5 R -30 -16 R
-25 -25 R -16 -31 R -5 -34 R 5 -34 R 16 -31 R 25 -25 R 30 -16 R 35 -5 R
34 5 R 31 16 R 25 25 R 15 31 R 6 34 R F
11658 4747 M -6 34 R -16 31 R -24 25 R -31 16 R -34 5 R -35 -5 R -31 -16 R
-24 -25 R -16 -31 R -5 -34 R 5 -34 R 16 -31 R 24 -25 R 31 -16 R 35 -5 R
34 5 R 31 16 R 24 25 R 16 31 R 6 34 R F
9325 6008 M -5 34 R -16 31 R -24 25 R -31 15 R -35 6 R -34 -6 R -31 -15 R
-24 -25 R -16 -31 R -6 -34 R 6 -34 R 16 -31 R 24 -25 R 31 -16 R 34 -5 R
35 5 R 31 16 R 24 25 R 16 31 R 5 34 R F
9402 6820 M -5 35 R -16 31 R -24 24 R -31 16 R -35 5 R -34 -5 R -31 -16 R
-24 -24 R -16 -31 R -6 -35 R 6 -34 R 16 -31 R 24 -24 R 31 -16 R 34 -6 R
35 6 R 31 16 R 24 24 R 16 31 R 5 34 R F
8361 6806 M -5 34 R -16 31 R -25 25 R -31 16 R -34 5 R -34 -5 R -31 -16 R
-25 -25 R -15 -31 R -6 -34 R 6 -34 R 15 -31 R 25 -25 R 31 -16 R 34 -5 R
34 5 R 31 16 R 25 25 R 16 31 R 5 34 R F
18588 4022 M -5 35 R -16 31 R -24 24 R -31 16 R -35 5 R -34 -5 R -31 -16 R
-24 -24 R -16 -31 R -6 -35 R 6 -34 R 16 -31 R 24 -24 R 31 -16 R 34 -6 R
35 6 R 31 16 R 24 24 R 16 31 R 5 34 R F
8974 6042 M -5 34 R -16 31 R -24 25 R -31 16 R -35 5 R -34 -5 R -31 -16 R
-24 -25 R -16 -31 R -6 -34 R 6 -34 R 16 -31 R 24 -25 R 31 -16 R 34 -5 R
35 5 R 31 16 R 24 25 R 16 31 R 5 34 R F
9301 5674 M -6 35 R -15 31 R -25 24 R -31 16 R -34 5 R -34 -5 R -31 -16 R
-25 -24 R -16 -31 R -5 -35 R 5 -34 R 16 -31 R 25 -25 R 31 -15 R 34 -6 R
34 6 R 31 15 R 25 25 R 15 31 R 6 34 R F
9361 6668 M -6 35 R -16 31 R -24 24 R -31 16 R -34 5 R -35 -5 R -31 -16 R
-24 -24 R -16 -31 R -5 -35 R 5 -34 R 16 -31 R 24 -24 R 31 -16 R 35 -6 R
34 6 R 31 16 R 24 24 R 16 31 R 6 34 R F
8422 6830 M -6 35 R -16 30 R -24 25 R -31 16 R -34 5 R -35 -5 R -31 -16 R
-24 -25 R -16 -30 R -5 -35 R 5 -34 R 16 -31 R 24 -25 R 31 -15 R 35 -6 R
34 6 R 31 15 R 24 25 R 16 31 R 6 34 R F
4551 2816 M -5 34 R -16 31 R -25 25 R -31 16 R -34 5 R 0 -111 R 111 0 R F
8746 5711 M -6 34 R -15 31 R -25 25 R -31 15 R -34 6 R -34 -6 R -31 -15 R
-25 -25 R -16 -31 R -5 -34 R 5 -35 R 16 -30 R 25 -25 R 31 -16 R 34 -5 R
34 5 R 31 16 R 25 25 R 15 30 R 6 35 R F
12938 5125 M -5 35 R -16 31 R -24 24 R -31 16 R -35 5 R -34 -5 R -31 -16 R
-25 -24 R -15 -31 R -6 -35 R 6 -34 R 15 -31 R 25 -24 R 31 -16 R 34 -6 R
35 6 R 31 16 R 24 24 R 16 31 R 5 34 R F
7397 7719 M -5 34 R -16 31 R -25 25 R -31 15 R -34 6 R -34 -6 R -31 -15 R
-25 -25 R -16 -31 R -5 -34 R 5 -34 R 16 -31 R 25 -25 R 31 -16 R 34 -5 R
34 5 R 31 16 R 25 25 R 16 31 R 5 34 R F
9501 7124 M -5 34 R -16 31 R -25 25 R -31 15 R -34 6 R -34 -6 R -31 -15 R
-25 -25 R -16 -31 R -5 -34 R 5 -35 R 16 -30 R 25 -25 R 31 -16 R 34 -5 R
34 5 R 31 16 R 25 25 R 16 30 R 5 35 R F
9378 5378 M -6 34 R -15 31 R -25 25 R -31 15 R -34 6 R -35 -6 R -31 -15 R
-24 -25 R -16 -31 R -5 -34 R 5 -34 R 16 -31 R 24 -25 R 31 -16 R 35 -5 R
34 5 R 31 16 R 25 25 R 15 31 R 6 34 R F
8778 5914 M -6 34 R -15 31 R -25 24 R -31 16 R -34 6 R -34 -6 R -31 -16 R
-25 -24 R -16 -31 R -5 -34 R 5 -35 R 16 -31 R 25 -24 R 31 -16 R 34 -5 R
34 5 R 31 16 R 25 24 R 15 31 R 6 35 R F
9330 6226 M -5 34 R -16 31 R -24 24 R -31 16 R -35 6 R -34 -6 R -31 -16 R
-24 -24 R -16 -31 R -6 -34 R 6 -35 R 16 -31 R 24 -24 R 31 -16 R 34 -5 R
35 5 R 31 16 R 24 24 R 16 31 R 5 35 R F
9010 6686 M -6 34 R -16 31 R -24 25 R -31 16 R -34 5 R -35 -5 R -31 -16 R
-24 -25 R -16 -31 R -5 -34 R 5 -34 R 16 -31 R 24 -25 R 31 -15 R 35 -6 R
34 6 R 31 15 R 24 25 R 16 31 R 6 34 R F
19668 4217 M -5 5 R -31 16 R -34 5 R -35 -5 R -31 -16 R -24 -24 R -16 -31 R
-5 -35 R 5 -34 R 16 -31 R 24 -24 R 31 -16 R 35 -6 R 34 6 R 31 16 R 5 5 R F
9178 6587 M -5 34 R -16 31 R -25 25 R -31 15 R -34 6 R -34 -6 R -31 -15 R
-25 -25 R -16 -31 R -5 -34 R 5 -35 R 16 -30 R 25 -25 R 31 -16 R 34 -5 R
34 5 R 31 16 R 25 25 R 16 30 R 5 35 R F
5780 11494 M -6 34 R -15 31 R -25 24 R -31 16 R -34 6 R -34 -6 R -31 -16 R
-25 -24 R -16 -31 R -5 -34 R 5 -35 R 16 -31 R 25 -24 R 31 -16 R 34 -5 R
34 5 R 31 16 R 25 24 R 15 31 R 6 35 R F
7395 8143 M -6 34 R -16 31 R -24 24 R -31 16 R -34 6 R -35 -6 R -31 -16 R
-24 -24 R -16 -31 R -5 -34 R 5 -35 R 16 -31 R 24 -24 R 31 -16 R 35 -5 R
34 5 R 31 16 R 24 24 R 16 31 R 6 35 R F
10288 4704 M -6 34 R -16 31 R -24 25 R -31 15 R -34 6 R -35 -6 R -31 -15 R
-24 -25 R -16 -31 R -5 -34 R 5 -35 R 16 -30 R 24 -25 R 31 -16 R 35 -5 R
34 5 R 31 16 R 24 25 R 16 30 R 6 35 R F
8081 8129 M -5 34 R -16 31 R -24 25 R -31 15 R -35 6 R -34 -6 R -31 -15 R
-24 -25 R -16 -31 R -6 -34 R 6 -35 R 16 -31 R 24 -24 R 31 -16 R 34 -5 R
35 5 R 31 16 R 24 24 R 16 31 R 5 35 R F
8378 5985 M -6 35 R -16 30 R -24 25 R -31 16 R -34 5 R -35 -5 R -31 -16 R
-24 -25 R -16 -30 R -5 -35 R 5 -34 R 16 -31 R 24 -25 R 31 -15 R 35 -6 R
34 6 R 31 15 R 24 25 R 16 31 R 6 34 R F
13336 4236 M -6 35 R -15 31 R -25 24 R -31 16 R -34 5 R -34 -5 R -31 -16 R
-25 -24 R -16 -31 R -5 -35 R 5 -34 R 16 -31 R 25 -24 R 31 -16 R 34 -6 R
34 6 R 31 16 R 25 24 R 15 31 R 6 34 R F
7886 7273 M -5 34 R -16 31 R -25 25 R -31 15 R -34 6 R -34 -6 R -31 -15 R
-25 -25 R -15 -31 R -6 -34 R 6 -34 R 15 -31 R 25 -25 R 31 -16 R 34 -5 R
34 5 R 31 16 R 25 25 R 16 31 R 5 34 R F
4551 2816 M -5 34 R -16 31 R -25 25 R -31 16 R -34 5 R 0 -111 R 111 0 R F
10653 7251 M -5 35 R -16 31 R -25 24 R -31 16 R -34 5 R -34 -5 R -31 -16 R
-25 -24 R -15 -31 R -6 -35 R 6 -34 R 15 -31 R 25 -24 R 31 -16 R 34 -6 R
34 6 R 31 16 R 25 24 R 16 31 R 5 34 R F
9493 5569 M -5 34 R -16 31 R -25 25 R -31 16 R -34 5 R -34 -5 R -31 -16 R
-25 -25 R -16 -31 R -5 -34 R 5 -34 R 16 -31 R 25 -25 R 31 -16 R 34 -5 R
34 5 R 31 16 R 25 25 R 16 31 R 5 34 R F
9276 5542 M -6 34 R -16 31 R -24 24 R -31 16 R -34 6 R -35 -6 R -31 -16 R
-24 -24 R -16 -31 R -5 -34 R 5 -35 R 16 -31 R 24 -24 R 31 -16 R 35 -5 R
34 5 R 31 16 R 24 24 R 16 31 R 6 35 R F
10238 7287 M -5 34 R -16 31 R -25 25 R -30 15 R -35 6 R -34 -6 R -31 -15 R
-25 -25 R -15 -31 R -6 -34 R 6 -35 R 15 -31 R 25 -24 R 31 -16 R 34 -5 R
35 5 R 30 16 R 25 24 R 16 31 R 5 35 R F
13551 3881 M -5 34 R -16 31 R -24 24 R -31 16 R -35 6 R -34 -6 R -31 -16 R
-24 -24 R -16 -31 R -6 -34 R 6 -35 R 16 -31 R 24 -24 R 31 -16 R 34 -5 R
35 5 R 31 16 R 24 24 R 16 31 R 5 35 R F
6728 8715 M -6 34 R -15 31 R -25 25 R -31 15 R -34 6 R -34 -6 R -31 -15 R
-25 -25 R -16 -31 R -5 -34 R 5 -34 R 16 -31 R 25 -25 R 31 -16 R 34 -5 R
34 5 R 31 16 R 25 25 R 15 31 R 6 34 R F
9361 6987 M -6 34 R -16 31 R -24 25 R -31 16 R -34 5 R -35 -5 R -31 -16 R
-24 -25 R -16 -31 R -5 -34 R 5 -34 R 16 -31 R 24 -25 R 31 -15 R 35 -6 R
34 6 R 31 15 R 24 25 R 16 31 R 6 34 R F
13631 4124 M -6 35 R -16 30 R -24 25 R -31 16 R -34 5 R -35 -5 R -31 -16 R
-24 -25 R -16 -30 R -5 -35 R 5 -34 R 16 -31 R 24 -25 R 31 -15 R 35 -6 R
34 6 R 31 15 R 24 25 R 16 31 R 6 34 R F
8974 7187 M -5 34 R -16 31 R -24 25 R -31 15 R -35 6 R -34 -6 R -31 -15 R
-24 -25 R -16 -31 R -6 -34 R 6 -34 R 16 -31 R 24 -25 R 31 -16 R 34 -5 R
35 5 R 31 16 R 24 25 R 16 31 R 5 34 R F
9715 6085 M -5 34 R -16 31 R -25 25 R -31 15 R -34 6 R -34 -6 R -31 -15 R
-25 -25 R -16 -31 R -5 -34 R 5 -34 R 16 -31 R 25 -25 R 31 -16 R 34 -5 R
34 5 R 31 16 R 25 25 R 16 31 R 5 34 R F
14505 4284 M -6 34 R -16 31 R -24 25 R -31 16 R -34 5 R -35 -5 R -31 -16 R
-24 -25 R -16 -31 R -5 -34 R 5 -34 R 16 -31 R 24 -25 R 31 -16 R 35 -5 R
34 5 R 31 16 R 24 25 R 16 31 R 6 34 R F
11124 4167 M -6 34 R -16 31 R -24 25 R -31 16 R -34 5 R -35 -5 R -31 -16 R
-24 -25 R -16 -31 R -5 -34 R 5 -34 R 16 -31 R 24 -25 R 31 -16 R 35 -5 R
34 5 R 31 16 R 24 25 R 16 31 R 6 34 R F
11492 4828 M -5 34 R -16 31 R -24 25 R -31 16 R -35 5 R -34 -5 R -31 -16 R
-24 -25 R -16 -31 R -6 -34 R 6 -34 R 16 -31 R 24 -25 R 31 -16 R 34 -5 R
35 5 R 31 16 R 24 25 R 16 31 R 5 34 R F
12199 5140 M -5 35 R -16 30 R -24 25 R -31 16 R -35 5 R -34 -5 R -31 -16 R
-25 -25 R -15 -30 R -6 -35 R 6 -34 R 15 -31 R 25 -25 R 31 -15 R 34 -6 R
35 6 R 31 15 R 24 25 R 16 31 R 5 34 R F
10010 5716 M -6 34 R -15 31 R -25 25 R -31 16 R -34 5 R -34 -5 R -31 -16 R
-25 -25 R -16 -31 R -5 -34 R 5 -34 R 16 -31 R 25 -25 R 31 -15 R 34 -6 R
34 6 R 31 15 R 25 25 R 15 31 R 6 34 R F
8203 5861 M -5 34 R -16 31 R -24 25 R -31 15 R -35 6 R -34 -6 R -31 -15 R
-24 -25 R -16 -31 R -6 -34 R 6 -35 R 16 -31 R 24 -24 R 31 -16 R 34 -5 R
35 5 R 31 16 R 24 24 R 16 31 R 5 35 R F
9341 6035 M -5 34 R -16 31 R -25 25 R -31 16 R -34 5 R -34 -5 R -31 -16 R
-25 -25 R -15 -31 R -6 -34 R 6 -34 R 15 -31 R 25 -25 R 31 -16 R 34 -5 R
34 5 R 31 16 R 25 25 R 16 31 R 5 34 R F
4551 2816 M -5 34 R -16 31 R -25 25 R -31 16 R -34 5 R 0 -111 R 111 0 R F
9589 6278 M -5 35 R -16 31 R -24 24 R -31 16 R -35 5 R -34 -5 R -31 -16 R
-24 -24 R -16 -31 R -6 -35 R 6 -34 R 16 -31 R 24 -24 R 31 -16 R 34 -6 R
35 6 R 31 16 R 24 24 R 16 31 R 5 34 R F
9852 6225 M -5 35 R -16 31 R -25 24 R -31 16 R -34 5 R -34 -5 R -31 -16 R
-25 -24 R -15 -31 R -6 -35 R 6 -34 R 15 -31 R 25 -25 R 31 -15 R 34 -6 R
34 6 R 31 15 R 25 25 R 16 31 R 5 34 R F
16793 4234 M -6 35 R -15 31 R -25 24 R -31 16 R -34 5 R -35 -5 R -31 -16 R
-24 -24 R -16 -31 R -5 -35 R 5 -34 R 16 -31 R 25 -24 R 30 -16 R 35 -6 R
34 6 R 31 16 R 25 24 R 15 31 R 6 34 R F
9747 5148 M -6 34 R -15 31 R -25 25 R -31 16 R -34 5 R -35 -5 R -30 -16 R
-25 -25 R -16 -31 R -5 -34 R 5 -34 R 16 -31 R 25 -25 R 30 -16 R 35 -5 R
34 5 R 31 16 R 25 25 R 15 31 R 6 34 R F
11658 4747 M -6 34 R -16 31 R -24 25 R -31 16 R -34 5 R -35 -5 R -31 -16 R
-24 -25 R -16 -31 R -5 -34 R 5 -34 R 16 -31 R 24 -25 R 31 -16 R 35 -5 R
34 5 R 31 16 R 24 25 R 16 31 R 6 34 R F
9325 6008 M -5 34 R -16 31 R -24 25 R -31 15 R -35 6 R -34 -6 R -31 -15 R
-24 -25 R -16 -31 R -6 -34 R 6 -34 R 16 -31 R 24 -25 R 31 -16 R 34 -5 R
35 5 R 31 16 R 24 25 R 16 31 R 5 34 R F
9402 6820 M -5 35 R -16 31 R -24 24 R -31 16 R -35 5 R -34 -5 R -31 -16 R
-24 -24 R -16 -31 R -6 -35 R 6 -34 R 16 -31 R 24 -24 R 31 -16 R 34 -6 R
35 6 R 31 16 R 24 24 R 16 31 R 5 34 R F
8361 6806 M -5 34 R -16 31 R -25 25 R -31 16 R -34 5 R -34 -5 R -31 -16 R
-25 -25 R -15 -31 R -6 -34 R 6 -34 R 15 -31 R 25 -25 R 31 -16 R 34 -5 R
34 5 R 31 16 R 25 25 R 16 31 R 5 34 R F
18588 4022 M -5 35 R -16 31 R -24 24 R -31 16 R -35 5 R -34 -5 R -31 -16 R
-24 -24 R -16 -31 R -6 -35 R 6 -34 R 16 -31 R 24 -24 R 31 -16 R 34 -6 R
35 6 R 31 16 R 24 24 R 16 31 R 5 34 R F
8974 6042 M -5 34 R -16 31 R -24 25 R -31 16 R -35 5 R -34 -5 R -31 -16 R
-24 -25 R -16 -31 R -6 -34 R 6 -34 R 16 -31 R 24 -25 R 31 -16 R 34 -5 R
35 5 R 31 16 R 24 25 R 16 31 R 5 34 R F
9301 5674 M -6 35 R -15 31 R -25 24 R -31 16 R -34 5 R -34 -5 R -31 -16 R
-25 -24 R -16 -31 R -5 -35 R 5 -34 R 16 -31 R 25 -25 R 31 -15 R 34 -6 R
34 6 R 31 15 R 25 25 R 15 31 R 6 34 R F
9361 6668 M -6 35 R -16 31 R -24 24 R -31 16 R -34 5 R -35 -5 R -31 -16 R
-24 -24 R -16 -31 R -5 -35 R 5 -34 R 16 -31 R 24 -24 R 31 -16 R 35 -6 R
34 6 R 31 16 R 24 24 R 16 31 R 6 34 R F
8422 6830 M -6 35 R -16 30 R -24 25 R -31 16 R -34 5 R -35 -5 R -31 -16 R
-24 -25 R -16 -30 R -5 -35 R 5 -34 R 16 -31 R 24 -25 R 31 -15 R 35 -6 R
34 6 R 31 15 R 24 25 R 16 31 R 6 34 R F
4551 2816 M -5 34 R -16 31 R -25 25 R -31 16 R -34 5 R 0 -111 R 111 0 R F
8746 5711 M -6 34 R -15 31 R -25 25 R -31 15 R -34 6 R -34 -6 R -31 -15 R
-25 -25 R -16 -31 R -5 -34 R 5 -35 R 16 -30 R 25 -25 R 31 -16 R 34 -5 R
34 5 R 31 16 R 25 25 R 15 30 R 6 35 R F
12938 5125 M -5 35 R -16 31 R -24 24 R -31 16 R -35 5 R -34 -5 R -31 -16 R
-25 -24 R -15 -31 R -6 -35 R 6 -34 R 15 -31 R 25 -24 R 31 -16 R 34 -6 R
35 6 R 31 16 R 24 24 R 16 31 R 5 34 R F
7397 7719 M -5 34 R -16 31 R -25 25 R -31 15 R -34 6 R -34 -6 R -31 -15 R
-25 -25 R -16 -31 R -5 -34 R 5 -34 R 16 -31 R 25 -25 R 31 -16 R 34 -5 R
34 5 R 31 16 R 25 25 R 16 31 R 5 34 R F
9501 7124 M -5 34 R -16 31 R -25 25 R -31 15 R -34 6 R -34 -6 R -31 -15 R
-25 -25 R -16 -31 R -5 -34 R 5 -35 R 16 -30 R 25 -25 R 31 -16 R 34 -5 R
34 5 R 31 16 R 25 25 R 16 30 R 5 35 R F
9378 5378 M -6 34 R -15 31 R -25 25 R -31 15 R -34 6 R -35 -6 R -31 -15 R
-24 -25 R -16 -31 R -5 -34 R 5 -34 R 16 -31 R 24 -25 R 31 -16 R 35 -5 R
34 5 R 31 16 R 25 25 R 15 31 R 6 34 R F
8778 5914 M -6 34 R -15 31 R -25 24 R -31 16 R -34 6 R -34 -6 R -31 -16 R
-25 -24 R -16 -31 R -5 -34 R 5 -35 R 16 -31 R 25 -24 R 31 -16 R 34 -5 R
34 5 R 31 16 R 25 24 R 15 31 R 6 35 R F
9330 6226 M -5 34 R -16 31 R -24 24 R -31 16 R -35 6 R -34 -6 R -31 -16 R
-24 -24 R -16 -31 R -6 -34 R 6 -35 R 16 -31 R 24 -24 R 31 -16 R 34 -5 R
35 5 R 31 16 R 24 24 R 16 31 R 5 35 R F
9010 6686 M -6 34 R -16 31 R -24 25 R -31 16 R -34 5 R -35 -5 R -31 -16 R
-24 -25 R -16 -31 R -5 -34 R 5 -34 R 16 -31 R 24 -25 R 31 -15 R 35 -6 R
34 6 R 31 15 R 24 25 R 16 31 R 6 34 R F
19668 4217 M -5 5 R -31 16 R -34 5 R -35 -5 R -31 -16 R -24 -24 R -16 -31 R
-5 -35 R 5 -34 R 16 -31 R 24 -24 R 31 -16 R 35 -6 R 34 6 R 31 16 R 5 5 R F
9178 6587 M -5 34 R -16 31 R -25 25 R -31 15 R -34 6 R -34 -6 R -31 -15 R
-25 -25 R -16 -31 R -5 -34 R 5 -35 R 16 -30 R 25 -25 R 31 -16 R 34 -5 R
34 5 R 31 16 R 25 25 R 16 30 R 5 35 R F
30 setlinewidth 5669 10487 M 0 2014 R D 5669 11494 M Z 7284 7550 M 0 1186 R
D 7283 8143 M 1 0 R D 10177 4409 M 0 590 R D 9684 4704 M 986 0 R D
7970 7656 M 0 946 R D 7562 8129 M 817 0 R D 8267 5520 M 0 931 R D
8266 5985 M 1 0 R D 13225 4044 M 0 385 R D 12675 4236 M 1100 0 R D
7775 6405 M 0 1736 R D 7774 7273 M 2 0 R D 4440 2816 M Z 10542 6661 M
0 1181 R D 10184 7251 M 716 0 R D 9382 5259 M 0 620 R D 8948 5569 M 868 0 R
D 9165 5145 M 0 793 R D 8756 5542 M 817 0 R D 10127 6506 M 0 1562 R D
10126 7287 M 2 0 R D 13440 3687 M 0 388 R D 12522 3881 M 1836 0 R D
6617 8053 M 0 1324 R D 6359 8715 M 516 0 R D 9250 6371 M 0 1233 R D
9249 6987 M 1 0 R D 13520 3919 M 0 410 R D 12923 4124 M 1193 0 R D
8863 6821 M 0 732 R D 8863 7187 M 1 0 R D 9604 5757 M 0 656 R D 9180 6085 M
848 0 R D 14394 3915 M 0 738 R D 13698 4284 M 1392 0 R D 11013 3979 M
0 376 R D 10167 4167 M 1691 0 R D 11381 4562 M 0 532 R D 10766 4828 M
1231 0 R D 12088 4523 M 0 1234 R D 11432 5140 M 1313 0 R D 9899 5257 M
0 918 R D 9442 5716 M 914 0 R D 8092 5310 M 0 1101 R D 7663 5861 M 859 0 R D
9230 5483 M 0 1104 R D 8837 6035 M 786 0 R D 4440 2816 M Z 9478 5411 M
0 1735 R D 8896 6278 M 1165 0 R D 9741 5869 M 0 712 R D 9740 6225 M 2 0 R D
16682 4014 M 0 441 R D 15618 4234 M 2128 0 R D 9636 4815 M 0 666 R D
9635 5148 M 2 0 R D 11547 4486 M 0 522 R D 10938 4747 M 1217 0 R D
9214 5510 M 0 996 R D 9214 6008 M 1 0 R D 9291 6332 M 0 976 R D 8878 6820 M
827 0 R D 8250 6240 M 0 1132 R D 7921 6806 M 658 0 R D 18477 3783 M 0 479 R
D 17251 4022 M 2417 0 R D 8863 5756 M 0 572 R D 8863 6042 M 1 0 R D
9190 5272 M 0 804 R D 8775 5674 M 830 0 R D 9250 6195 M 0 947 R D
9249 6668 M 1 0 R D 8311 6446 M 0 768 R D 7892 6830 M 837 0 R D 4440 2816 M
Z 8635 5267 M 0 888 R D 8197 5711 M 876 0 R D 12827 4945 M 0 361 R D
11864 5125 M 1927 0 R D 7286 6741 M 0 1956 R D 7097 7719 M 378 0 R D
9390 6728 M 0 791 R D 9390 7124 M Z 9267 4955 M 0 845 R D 8898 5378 M
738 0 R D 8667 5315 M 0 1197 R D 8164 5914 M 1006 0 R D 9219 5939 M 0 573 R
D 8878 6226 M 683 0 R D 8899 6151 M 0 1070 R D 8898 6686 M 1 0 R D
19598 3913 M 0 439 R D 19053 4132 M 615 0 R D 9067 6145 M 0 883 R D
8677 6587 M 780 0 R D
%%PageTrailer
end
%%PageResources: font Helvetica
%%Trailer
%%Pages: 1
%%DocumentNeededResources: font Helvetica
%%EOF
