%!PS-Adobe-3.0 EPSF-3.0
%%BoundingBox: 0 0 595 396
%%Title: Graphics produced by IDL
%%For: saskia@solar94.ph.bham.ac.uk, 
%%      /home/saskia/Kepler/Q1data/WG2ApJLetter
%%Creator: IDL Version 7.0.6 (linux x86_64 m64)
%%CreationDate: Tue Oct 13 13:08:54 2009
%%DocumentData: Clean7bit
%%Requirements: color
%%LanguageLevel: 1
%%PageOrder: Ascend
%%Pages: (atend)
%%DocumentNeededResources: (atend)
%%EndComments
%%BeginProlog
%+ prolog.ps -- Prolog for IDL generated PostScript files
%+ Copyright (c) 1988-2008 ITT Visual Information Solutions. All Rights Reserved.
%v 5
/$IDL_DICT 40 dict def $IDL_DICT begin /bdef { bind def } bind def /C
{currentpoint newpath moveto} bdef /CP {currentpoint} bdef /D {currentpoint
stroke moveto} bdef /F {closepath fill} bdef /K { setgray } bdef /M {moveto}
bdef /N {rmoveto} bdef /P {lineto} bdef /R {rlineto} bdef /S {gsave show
grestore} bdef /X {currentpoint pop} bdef /Z {gsave currentpoint lineto 20
setlinewidth 1 setlinecap stroke grestore} bdef /L0 {[] 0 setdash} bdef /L1
{[40 100] 0 setdash} bdef /L2 {[200 200] 0 setdash} bdef /L3 {[200 100 50
100] 0 setdash} bdef /L4 {[300 100 50 100 50 100 50 100] 0 setdash} bdef /L5
{[400 200] 0 setdash} bdef /STDFONT { findfont exch scalefont setfont } bdef
/ISOFONT { findfont dup length dict begin { 1 index /FID ne {def} {pop pop}
ifelse } forall /Encoding ISOLatin1Encoding def currentdict end /idltmpfont
exch definefont exch scalefont setfont } bdef /ISOBULLET { gsave /Helvetica
findfont exch scalefont setfont (\267) show currentpoint grestore moveto}
bdef /MITERLIMIT { 2.5 setmiterlimit } bdef end
%%EndProlog
%%Page: 0 1
%%PageRequirements: color
%%PageResources: (atend)
%%PageOrientation: Portrait
%%PageBoundingBox: 0 0 595 396
%%BeginPageSetup
$IDL_DICT begin 0.0283465 dup scale MITERLIMIT
%%IncludeResource: font Helvetica
423.333 /Helvetica STDFONT
%%EndPageSetup
50 setlinewidth L0 0.000 0.000 0.000 setrgbcolor 4440 2816 M 15228 0 R D
4440 2816 M 0 196 R D 4393 2251 M -70 -24 R -46 -70 R -24 -117 R 0 -70 R
24 -116 R 46 -71 R 70 -23 R 47 0 R 70 23 R 47 71 R 23 116 R 0 70 R -23 117 R
-47 70 R -70 24 R -47 0 R D 9516 2816 M 0 196 R D 9610 2251 M -234 0 R
-23 -211 R 23 24 R 70 23 R 70 0 R 70 -23 R 47 -47 R 23 -70 R 0 -47 R
-23 -70 R -47 -47 R -70 -23 R -70 0 R -70 23 R -23 24 R -24 47 R D
14592 2816 M 0 196 R D 14242 2157 M 46 24 R 70 70 R 0 -491 R D 14779 2251 M
-70 -24 R -47 -70 R -23 -117 R 0 -70 R 23 -116 R 47 -71 R 70 -23 R 47 0 R
70 23 R 47 71 R 23 116 R 0 70 R -23 117 R -47 70 R -70 24 R -47 0 R D
19668 2816 M 0 196 R D 19318 2157 M 46 24 R 70 70 R 0 -491 R D 19995 2251 M
-233 0 R -24 -211 R 24 24 R 70 23 R 70 0 R 70 -23 R 47 -47 R 23 -70 R
0 -47 R -23 -70 R -47 -47 R -70 -23 R -70 0 R -70 23 R -24 24 R -23 47 R D
5455 2816 M 0 98 R D 6471 2816 M 0 98 R D 7486 2816 M 0 98 R D 8501 2816 M
0 98 R D 10531 2816 M 0 98 R D 11547 2816 M 0 98 R D 12562 2816 M 0 98 R D
13577 2816 M 0 98 R D 15607 2816 M 0 98 R D 16623 2816 M 0 98 R D
17638 2816 M 0 98 R D 18653 2816 M 0 98 R D 10559 1336 M -187 -491 R D
10559 1336 M 186 -491 R D 10559 1266 M 163 -421 R D 10395 868 M 327 0 R D
10372 845 M 373 0 R D 10932 1172 M -46 -327 R D 10956 1172 M -24 -140 R
-23 -117 R -23 -70 R D 11189 1172 M -23 -93 R -47 -94 R D 11213 1172 M
-24 -70 R -23 -47 R -47 -70 R -46 -47 R -70 -46 R -47 -24 R -70 -23 R D
10862 1172 M 94 0 R D 11727 1429 M 0 -771 R D 11750 1429 M 0 -771 R D
11727 1429 M 164 0 R D 11727 658 M 164 0 R D 12124 1172 M -140 -514 R D
12148 1172 M -141 -514 R D 12124 1102 M -23 -140 R 0 -70 R 47 -47 R 46 0 R
47 23 R 47 47 R 47 70 R D 12381 1172 M -70 -257 R 0 -47 R 24 -23 R 70 0 R
46 47 R 24 46 R D 12405 1172 M -70 -257 R 0 -47 R 23 -23 R D 12592 1336 M
0 -491 R D 12919 1336 M 0 -491 R D 12592 1102 M 327 0 R D 13339 1172 M
-257 -327 R D 13082 1172 M 257 0 R D 13082 845 M 257 0 R D 13620 1429 M
0 -771 R D 13643 1429 M 0 -771 R D 13480 1429 M 163 0 R D 13480 658 M
163 0 R D 4440 12592 M 15228 0 R D 4440 12592 M 0 -195 R D 9516 12592 M
0 -195 R D 14592 12592 M 0 -195 R D 19668 12592 M 0 -195 R D 5455 12592 M
0 -98 R D 6471 12592 M 0 -98 R D 7486 12592 M 0 -98 R D 8501 12592 M 0 -98 R
D 10531 12592 M 0 -98 R D 11547 12592 M 0 -98 R D 12562 12592 M 0 -98 R D
13577 12592 M 0 -98 R D 15607 12592 M 0 -98 R D 16623 12592 M 0 -98 R D
17638 12592 M 0 -98 R D 18653 12592 M 0 -98 R D 4440 2816 M 0 9776 R D
4440 2816 M 305 0 R D 3938 3307 M -70 -24 R -47 -70 R -24 -117 R 0 -70 R
24 -116 R 47 -71 R 70 -23 R 46 0 R 71 23 R 46 71 R 24 116 R 0 70 R -24 117 R
-46 70 R -71 24 R -46 0 R D 4440 5260 M 305 0 R D 4078 5469 M -234 0 R
-23 -210 R 23 23 R 70 24 R 70 0 R 71 -24 R 46 -46 R 24 -71 R 0 -46 R
-24 -70 R -46 -47 R -71 -24 R -70 0 R -70 24 R -23 23 R -24 47 R D
4440 7704 M 305 0 R D 3400 7820 M 47 23 R 70 70 R 0 -491 R D 3938 7913 M
-70 -23 R -47 -70 R -24 -117 R 0 -70 R 24 -117 R 47 -70 R 70 -24 R 46 0 R
71 24 R 46 70 R 24 117 R 0 70 R -24 117 R -46 70 R -71 23 R -46 0 R D
4440 10148 M 305 0 R D 3400 10264 M 47 23 R 70 70 R 0 -491 R D 4078 10357 M
-234 0 R -23 -210 R 23 23 R 70 24 R 70 0 R 71 -24 R 46 -46 R 24 -71 R
0 -46 R -24 -70 R -46 -47 R -71 -24 R -70 0 R -70 24 R -23 23 R -24 47 R D
4440 12592 M 305 0 R D 3353 12473 M 0 24 R 24 46 R 23 24 R 47 23 R 93 0 R
47 -23 R 24 -24 R 23 -46 R 0 -47 R -23 -47 R -47 -70 R -234 -234 R 327 0 R D
3938 12590 M -70 -23 R -47 -70 R -24 -117 R 0 -70 R 24 -117 R 47 -70 R
70 -24 R 46 0 R 71 24 R 46 70 R 24 117 R 0 70 R -24 117 R -46 70 R -71 23 R
-46 0 R D 4440 3305 M 152 0 R D 4440 3794 M 152 0 R D 4440 4282 M 152 0 R D
4440 4771 M 152 0 R D 4440 5749 M 152 0 R D 4440 6238 M 152 0 R D
4440 6726 M 152 0 R D 4440 7215 M 152 0 R D 4440 8193 M 152 0 R D
4440 8682 M 152 0 R D 4440 9170 M 152 0 R D 4440 9659 M 152 0 R D
4440 10637 M 152 0 R D 4440 11126 M 152 0 R D 4440 11614 M 152 0 R D
4440 12103 M 152 0 R D 2127 7517 M 490 0 R D 2127 7517 M 490 327 R -490 0 R
D 19668 2816 M 0 9776 R D 19668 2816 M -304 0 R D 19668 5260 M -304 0 R D
19668 7704 M -304 0 R D 19668 10148 M -304 0 R D 19668 12592 M -304 0 R D
19668 3305 M -152 0 R D 19668 3794 M -152 0 R D 19668 4282 M -152 0 R D
19668 4771 M -152 0 R D 19668 5749 M -152 0 R D 19668 6238 M -152 0 R D
19668 6726 M -152 0 R D 19668 7215 M -152 0 R D 19668 8193 M -152 0 R D
19668 8682 M -152 0 R D 19668 9170 M -152 0 R D 19668 9659 M -152 0 R D
19668 10637 M -152 0 R D 19668 11126 M -152 0 R D 19668 11614 M -152 0 R D
19668 12103 M -152 0 R D 4440 2816 M 0 1466 R 508 0 R 507 0 R 0 -1466 R
508 0 R 508 0 R 0 978 R 507 0 R 508 0 R 0 2932 R 507 0 R 508 0 R 0 5377 R
508 0 R 507 0 R 0 -5865 R 508 0 R 507 0 R 0 -489 R 508 0 R 508 0 R 0 -2933 R
507 0 R 508 0 R 507 0 R 508 0 R 0 978 R 508 0 R 507 0 R 0 -489 R 508 0 R
507 0 R 0 489 R 508 0 R 508 0 R 0 -978 R 507 0 R 508 0 R 507 0 R 508 0 R
508 0 R 507 0 R D
%%PageTrailer
end
%%PageResources: font Helvetica
%%Trailer
%%Pages: 1
%%DocumentNeededResources: font Helvetica
%%EOF
