%!PS-Adobe-3.0 EPSF-3.0
%%BoundingBox: 0 0 595 396
%%Title: Graphics produced by IDL
%%For: saskia@solar94.ph.bham.ac.uk, 
%%      /home/saskia/Kepler/Q1data/WG2ApJLetter
%%Creator: IDL Version 7.0.6 (linux x86_64 m64)
%%CreationDate: Tue Oct 13 13:08:54 2009
%%DocumentData: Clean7bit
%%Requirements: color
%%LanguageLevel: 1
%%PageOrder: Ascend
%%Pages: (atend)
%%DocumentNeededResources: (atend)
%%EndComments
%%BeginProlog
%+ prolog.ps -- Prolog for IDL generated PostScript files
%+ Copyright (c) 1988-2008 ITT Visual Information Solutions. All Rights Reserved.
%v 5
/$IDL_DICT 40 dict def $IDL_DICT begin /bdef { bind def } bind def /C
{currentpoint newpath moveto} bdef /CP {currentpoint} bdef /D {currentpoint
stroke moveto} bdef /F {closepath fill} bdef /K { setgray } bdef /M {moveto}
bdef /N {rmoveto} bdef /P {lineto} bdef /R {rlineto} bdef /S {gsave show
grestore} bdef /X {currentpoint pop} bdef /Z {gsave currentpoint lineto 20
setlinewidth 1 setlinecap stroke grestore} bdef /L0 {[] 0 setdash} bdef /L1
{[40 100] 0 setdash} bdef /L2 {[200 200] 0 setdash} bdef /L3 {[200 100 50
100] 0 setdash} bdef /L4 {[300 100 50 100 50 100 50 100] 0 setdash} bdef /L5
{[400 200] 0 setdash} bdef /STDFONT { findfont exch scalefont setfont } bdef
/ISOFONT { findfont dup length dict begin { 1 index /FID ne {def} {pop pop}
ifelse } forall /Encoding ISOLatin1Encoding def currentdict end /idltmpfont
exch definefont exch scalefont setfont } bdef /ISOBULLET { gsave /Helvetica
findfont exch scalefont setfont (\267) show currentpoint grestore moveto}
bdef /MITERLIMIT { 2.5 setmiterlimit } bdef end
%%EndProlog
%%Page: 0 1
%%PageRequirements: color
%%PageResources: (atend)
%%PageOrientation: Portrait
%%PageBoundingBox: 0 0 595 396
%%BeginPageSetup
$IDL_DICT begin 0.0283465 dup scale MITERLIMIT
%%IncludeResource: font Helvetica
423.333 /Helvetica STDFONT
%%EndPageSetup
50 setlinewidth L0 0.000 0.000 0.000 setrgbcolor 4440 2816 M 15228 0 R D
4440 2816 M 0 196 R D 4393 2251 M -70 -24 R -46 -70 R -24 -117 R 0 -70 R
24 -116 R 46 -71 R 70 -23 R 47 0 R 70 23 R 47 71 R 23 116 R 0 70 R -23 117 R
-47 70 R -70 24 R -47 0 R D 9516 2816 M 0 196 R D 9376 2251 M -234 0 R
-23 -211 R 23 24 R 70 23 R 70 0 R 71 -23 R 46 -47 R 24 -70 R 0 -47 R
-24 -70 R -46 -47 R -71 -23 R -70 0 R -70 23 R -23 24 R -24 47 R D
9703 2251 M -70 -24 R -47 -70 R -23 -117 R 0 -70 R 23 -116 R 47 -71 R
70 -23 R 47 0 R 70 23 R 47 71 R 23 116 R 0 70 R -23 117 R -47 70 R -70 24 R
-47 0 R D 14592 2816 M 0 196 R D 14008 2157 M 47 24 R 70 70 R 0 -491 R D
14545 2251 M -70 -24 R -46 -70 R -24 -117 R 0 -70 R 24 -116 R 46 -71 R
70 -23 R 47 0 R 70 23 R 47 71 R 23 116 R 0 70 R -23 117 R -47 70 R -70 24 R
-47 0 R D 15013 2251 M -70 -24 R -47 -70 R -23 -117 R 0 -70 R 23 -116 R
47 -71 R 70 -23 R 46 0 R 71 23 R 46 71 R 24 116 R 0 70 R -24 117 R -46 70 R
-71 24 R -46 0 R D 19668 2816 M 0 196 R D 19084 2157 M 47 24 R 70 70 R
0 -491 R D 19762 2251 M -234 0 R -23 -211 R 23 24 R 70 23 R 70 0 R 70 -23 R
47 -47 R 23 -70 R 0 -47 R -23 -70 R -47 -47 R -70 -23 R -70 0 R -70 23 R
-23 24 R -24 47 R D 20089 2251 M -70 -24 R -47 -70 R -23 -117 R 0 -70 R
23 -116 R 47 -71 R 70 -23 R 46 0 R 71 23 R 46 71 R 24 116 R 0 70 R -24 117 R
-46 70 R -71 24 R -46 0 R D 5455 2816 M 0 98 R D 6471 2816 M 0 98 R D
7486 2816 M 0 98 R D 8501 2816 M 0 98 R D 10531 2816 M 0 98 R D 11547 2816 M
0 98 R D 12562 2816 M 0 98 R D 13577 2816 M 0 98 R D 15607 2816 M 0 98 R D
16623 2816 M 0 98 R D 17638 2816 M 0 98 R D 18653 2816 M 0 98 R D
10221 1172 M -46 -327 R D 10245 1172 M -24 -140 R -23 -117 R -23 -70 R D
10478 1172 M -23 -93 R -47 -94 R D 10502 1172 M -24 -70 R -23 -47 R
-47 -70 R -46 -47 R -71 -46 R -46 -24 R -70 -23 R D 10151 1172 M 94 0 R D
10615 675 M 0 -202 R D 10615 617 M 44 44 R 29 14 R 43 0 R 29 -14 R 14 -44 R
0 -144 R D 10774 617 M 44 44 R 29 14 R 43 0 R 29 -14 R 15 -44 R 0 -144 R D
11208 675 M 0 -202 R D 11208 632 M -29 29 R -28 14 R -44 0 R -29 -14 R
-29 -29 R -14 -43 R 0 -29 R 14 -44 R 29 -29 R 29 -14 R 44 0 R 28 14 R
29 29 R D 11310 675 M 159 -202 R D 11469 675 M -159 -202 R D 11971 1429 M
0 -771 R D 11994 1429 M 0 -771 R D 11971 1429 M 163 0 R D 11971 658 M
163 0 R D 12368 1172 M -140 -514 R D 12391 1172 M -140 -514 R D 12368 1102 M
-23 -140 R 0 -70 R 46 -47 R 47 0 R 47 23 R 46 47 R 47 70 R D 12625 1172 M
-70 -257 R 0 -47 R 23 -23 R 70 0 R 47 47 R 23 46 R D 12648 1172 M -70 -257 R
0 -47 R 24 -23 R D 12835 1336 M 0 -491 R D 13162 1336 M 0 -491 R D
12835 1102 M 327 0 R D 13583 1172 M -257 -327 R D 13326 1172 M 257 0 R D
13326 845 M 257 0 R D 13863 1429 M 0 -771 R D 13887 1429 M 0 -771 R D
13723 1429 M 164 0 R D 13723 658 M 164 0 R D 4440 12592 M 15228 0 R D
4440 12592 M 0 -195 R D 9516 12592 M 0 -195 R D 14592 12592 M 0 -195 R D
19668 12592 M 0 -195 R D 5455 12592 M 0 -98 R D 6471 12592 M 0 -98 R D
7486 12592 M 0 -98 R D 8501 12592 M 0 -98 R D 10531 12592 M 0 -98 R D
11547 12592 M 0 -98 R D 12562 12592 M 0 -98 R D 13577 12592 M 0 -98 R D
15607 12592 M 0 -98 R D 16623 12592 M 0 -98 R D 17638 12592 M 0 -98 R D
18653 12592 M 0 -98 R D 4440 2816 M 0 9776 R D 4440 2816 M 305 0 R D
3938 3307 M -70 -24 R -47 -70 R -24 -117 R 0 -70 R 24 -116 R 47 -71 R
70 -23 R 46 0 R 71 23 R 46 71 R 24 116 R 0 70 R -24 117 R -46 70 R -71 24 R
-46 0 R D 4440 4445 M 305 0 R D 3821 4538 M 0 23 R 23 47 R 24 23 R 46 24 R
94 0 R 47 -24 R 23 -23 R 23 -47 R 0 -47 R -23 -46 R -47 -71 R -234 -233 R
328 0 R D 4440 6075 M 305 0 R D 4031 6284 M -234 -327 R 351 0 R D
4031 6284 M 0 -491 R D 4440 7704 M 305 0 R D 4101 7843 M -23 47 R -70 23 R
-47 0 R -70 -23 R -47 -70 R -23 -117 R 0 -117 R 23 -93 R 47 -47 R 70 -24 R
23 0 R 71 24 R 46 47 R 24 70 R 0 23 R -24 70 R -46 47 R -71 23 R -23 0 R
-70 -23 R -47 -47 R -23 -70 R D 4440 9333 M 305 0 R D 3914 9543 M -70 -24 R
-23 -47 R 0 -46 R 23 -47 R 47 -23 R 93 -24 R 71 -23 R 46 -47 R 24 -47 R
0 -70 R -24 -46 R -23 -24 R -70 -23 R -94 0 R -70 23 R -23 24 R -24 46 R
0 70 R 24 47 R 47 47 R 70 23 R 93 24 R 47 23 R 23 47 R 0 46 R -23 47 R
-70 24 R -94 0 R D 4440 10963 M 305 0 R D 3400 11078 M 47 24 R 70 70 R
0 -491 R D 3938 11172 M -70 -23 R -47 -71 R -24 -116 R 0 -71 R 24 -116 R
47 -70 R 70 -24 R 46 0 R 71 24 R 46 70 R 24 116 R 0 71 R -24 116 R -46 71 R
-71 23 R -46 0 R D 4440 12592 M 305 0 R D 3400 12497 M 47 23 R 70 70 R
0 -491 R D 3821 12473 M 0 24 R 23 46 R 24 24 R 46 23 R 94 0 R 47 -23 R
23 -24 R 23 -46 R 0 -47 R -23 -47 R -47 -70 R -234 -234 R 328 0 R D
4440 3223 M 152 0 R D 4440 3631 M 152 0 R D 4440 4038 M 152 0 R D
4440 4853 M 152 0 R D 4440 5260 M 152 0 R D 4440 5667 M 152 0 R D
4440 6482 M 152 0 R D 4440 6889 M 152 0 R D 4440 7297 M 152 0 R D
4440 8111 M 152 0 R D 4440 8519 M 152 0 R D 4440 8926 M 152 0 R D
4440 9741 M 152 0 R D 4440 10148 M 152 0 R D 4440 10555 M 152 0 R D
4440 11370 M 152 0 R D 4440 11777 M 152 0 R D 4440 12185 M 152 0 R D
2127 6208 M 490 -186 R D 2127 6208 M 490 187 R D 2197 6208 M 420 164 R D
2594 6045 M 0 327 R D 2617 6022 M 0 373 R D 2290 6582 M 327 -46 R D
2290 6606 M 140 -24 R 117 -23 R 70 -23 R D 2290 6839 M 94 -23 R 93 -47 R D
2290 6863 M 70 -24 R 47 -23 R 70 -47 R 47 -46 R 47 -71 R 23 -46 R 23 -70 R D
2290 6512 M 0 94 R D 2033 7377 M 771 0 R D 2033 7400 M 771 0 R D 2033 7377 M
0 163 R D 2804 7377 M 0 163 R D 2290 7774 M 514 -140 R D 2290 7798 M
514 -141 R D 2360 7774 M 141 -23 R 70 0 R 46 47 R 0 46 R -23 47 R -47 47 R
-70 46 R D 2290 8031 M 257 -70 R 47 0 R 23 23 R 0 71 R -46 46 R -47 24 R D
2290 8055 M 257 -71 R 47 0 R 23 24 R D 2127 8242 M 490 0 R D 2127 8569 M
490 0 R D 2360 8242 M 0 327 R D 2290 8989 M 327 -257 R D 2290 8732 M 0 257 R
D 2617 8732 M 0 257 R D 2033 9270 M 771 0 R D 2033 9293 M 771 0 R D
2033 9130 M 0 163 R D 2804 9130 M 0 163 R D 19668 2816 M 0 9776 R D
19668 2816 M -304 0 R D 19668 4445 M -304 0 R D 19668 6075 M -304 0 R D
19668 7704 M -304 0 R D 19668 9333 M -304 0 R D 19668 10963 M -304 0 R D
19668 12592 M -304 0 R D 19668 3223 M -152 0 R D 19668 3631 M -152 0 R D
19668 4038 M -152 0 R D 19668 4853 M -152 0 R D 19668 5260 M -152 0 R D
19668 5667 M -152 0 R D 19668 6482 M -152 0 R D 19668 6889 M -152 0 R D
19668 7297 M -152 0 R D 19668 8111 M -152 0 R D 19668 8519 M -152 0 R D
19668 8926 M -152 0 R D 19668 9741 M -152 0 R D 19668 10148 M -152 0 R D
19668 10555 M -152 0 R D 19668 11370 M -152 0 R D 19668 11777 M -152 0 R D
19668 12185 M -152 0 R D 5780 5042 M -6 35 R -15 30 R -25 25 R -31 16 R
-34 5 R -34 -5 R -31 -16 R -25 -25 R -16 -30 R -5 -35 R 5 -34 R 16 -31 R
25 -25 R 31 -15 R 34 -6 R 34 6 R 31 15 R 25 25 R 15 31 R 6 34 R F
7395 5925 M -6 34 R -16 31 R -24 25 R -31 16 R -34 5 R -35 -5 R -31 -16 R
-24 -25 R -16 -31 R -5 -34 R 5 -34 R 16 -31 R 24 -25 R 31 -15 R 35 -6 R
34 6 R 31 15 R 24 25 R 16 31 R 6 34 R F
10288 6619 M -6 34 R -16 31 R -24 25 R -31 16 R -34 5 R -35 -5 R -31 -16 R
-24 -25 R -16 -31 R -5 -34 R 5 -34 R 16 -31 R 24 -25 R 31 -15 R 35 -6 R
34 6 R 31 15 R 24 25 R 16 31 R 6 34 R F
8081 6006 M -5 34 R -16 31 R -24 25 R -31 15 R -35 6 R -34 -6 R -31 -15 R
-24 -25 R -16 -31 R -6 -34 R 6 -35 R 16 -30 R 24 -25 R 31 -16 R 34 -5 R
35 5 R 31 16 R 24 25 R 16 30 R 5 35 R F
8378 5757 M -6 34 R -16 31 R -24 25 R -31 15 R -34 6 R -35 -6 R -31 -15 R
-24 -25 R -16 -31 R -5 -34 R 5 -34 R 16 -31 R 24 -25 R 31 -16 R 35 -5 R
34 5 R 31 16 R 24 25 R 16 31 R 6 34 R F
13336 7361 M -6 34 R -15 31 R -25 25 R -31 16 R -34 5 R -34 -5 R -31 -16 R
-25 -25 R -16 -31 R -5 -34 R 5 -34 R 16 -31 R 25 -25 R 31 -16 R 34 -5 R
34 5 R 31 16 R 25 25 R 15 31 R 6 34 R F
7886 5359 M -5 34 R -16 31 R -25 25 R -31 15 R -34 6 R -34 -6 R -31 -15 R
-25 -25 R -15 -31 R -6 -34 R 6 -34 R 15 -31 R 25 -25 R 31 -16 R 34 -5 R
34 5 R 31 16 R 25 25 R 16 31 R 5 34 R F
4551 2816 M -5 34 R -16 31 R -25 25 R -31 16 R -34 5 R 0 -111 R 111 0 R F
10653 7316 M -5 34 R -16 31 R -25 25 R -31 16 R -34 5 R -34 -5 R -31 -16 R
-25 -25 R -15 -31 R -6 -34 R 6 -34 R 15 -31 R 25 -25 R 31 -15 R 34 -6 R
34 6 R 31 15 R 25 25 R 16 31 R 5 34 R F
9493 6192 M -5 34 R -16 31 R -25 25 R -31 16 R -34 5 R -34 -5 R -31 -16 R
-25 -25 R -16 -31 R -5 -34 R 5 -34 R 16 -31 R 25 -25 R 31 -15 R 34 -6 R
34 6 R 31 15 R 25 25 R 16 31 R 5 34 R F
9276 6142 M -6 35 R -16 31 R -24 24 R -31 16 R -34 5 R -35 -5 R -31 -16 R
-24 -24 R -16 -31 R -5 -35 R 5 -34 R 16 -31 R 24 -24 R 31 -16 R 35 -6 R
34 6 R 31 16 R 24 24 R 16 31 R 6 34 R F
10238 7141 M -5 34 R -16 31 R -25 25 R -30 16 R -35 5 R -34 -5 R -31 -16 R
-25 -25 R -15 -31 R -6 -34 R 6 -34 R 15 -31 R 25 -25 R 31 -16 R 34 -5 R
35 5 R 30 16 R 25 25 R 16 31 R 5 34 R F
13551 10369 M -5 35 R -16 31 R -24 24 R -31 16 R -35 5 R -34 -5 R -31 -16 R
-24 -24 R -16 -31 R -6 -35 R 6 -34 R 16 -31 R 24 -24 R 31 -16 R 34 -6 R
35 6 R 31 16 R 24 24 R 16 31 R 5 34 R F
6728 6563 M -6 34 R -15 31 R -25 24 R -31 16 R -34 6 R -34 -6 R -31 -16 R
-25 -24 R -16 -31 R -5 -34 R 5 -35 R 16 -31 R 25 -24 R 31 -16 R 34 -5 R
34 5 R 31 16 R 25 24 R 15 31 R 6 35 R F
9361 6544 M -6 34 R -16 31 R -24 25 R -31 15 R -34 6 R -35 -6 R -31 -15 R
-24 -25 R -16 -31 R -5 -34 R 5 -35 R 16 -30 R 24 -25 R 31 -16 R 35 -5 R
34 5 R 31 16 R 24 25 R 16 30 R 6 35 R F
13631 7947 M -6 34 R -16 31 R -24 24 R -31 16 R -34 6 R -35 -6 R -31 -16 R
-24 -24 R -16 -31 R -5 -34 R 5 -35 R 16 -31 R 24 -24 R 31 -16 R 35 -5 R
34 5 R 31 16 R 24 24 R 16 31 R 6 35 R F
8974 7584 M -5 35 R -16 31 R -24 24 R -31 16 R -35 5 R -34 -5 R -31 -16 R
-24 -24 R -16 -31 R -6 -35 R 6 -34 R 16 -31 R 24 -24 R 31 -16 R 34 -6 R
35 6 R 31 16 R 24 24 R 16 31 R 5 34 R F
9715 6532 M -5 34 R -16 31 R -25 25 R -31 16 R -34 5 R -34 -5 R -31 -16 R
-25 -25 R -16 -31 R -5 -34 R 5 -34 R 16 -31 R 25 -25 R 31 -16 R 34 -5 R
34 5 R 31 16 R 25 25 R 16 31 R 5 34 R F
14505 8312 M -6 34 R -16 31 R -24 25 R -31 15 R -34 6 R -35 -6 R -31 -15 R
-24 -25 R -16 -31 R -5 -34 R 5 -34 R 16 -31 R 24 -25 R 31 -16 R 35 -5 R
34 5 R 31 16 R 24 25 R 16 31 R 6 34 R F
11124 5931 M -6 35 R -16 31 R -24 24 R -31 16 R -34 5 R -35 -5 R -31 -16 R
-24 -24 R -16 -31 R -5 -35 R 5 -34 R 16 -31 R 24 -24 R 31 -16 R 35 -6 R
34 6 R 31 16 R 24 24 R 16 31 R 6 34 R F
11492 7549 M -5 34 R -16 31 R -24 25 R -31 15 R -35 6 R -34 -6 R -31 -15 R
-24 -25 R -16 -31 R -6 -34 R 6 -34 R 16 -31 R 24 -25 R 31 -16 R 34 -5 R
35 5 R 31 16 R 24 25 R 16 31 R 5 34 R F
12199 8200 M -5 34 R -16 31 R -24 25 R -31 15 R -35 6 R -34 -6 R -31 -15 R
-25 -25 R -15 -31 R -6 -34 R 6 -35 R 15 -30 R 25 -25 R 31 -16 R 34 -5 R
35 5 R 31 16 R 24 25 R 16 30 R 5 35 R F
10010 6703 M -6 34 R -15 31 R -25 25 R -31 16 R -34 5 R -34 -5 R -31 -16 R
-25 -25 R -16 -31 R -5 -34 R 5 -34 R 16 -31 R 25 -25 R 31 -15 R 34 -6 R
34 6 R 31 15 R 25 25 R 15 31 R 6 34 R F
8203 6238 M -5 34 R -16 31 R -24 24 R -31 16 R -35 6 R -34 -6 R -31 -16 R
-24 -24 R -16 -31 R -6 -34 R 6 -35 R 16 -31 R 24 -24 R 31 -16 R 34 -5 R
35 5 R 31 16 R 24 24 R 16 31 R 5 35 R F
9341 6246 M -5 34 R -16 31 R -25 24 R -31 16 R -34 6 R -34 -6 R -31 -16 R
-25 -24 R -15 -31 R -6 -34 R 6 -35 R 15 -31 R 25 -24 R 31 -16 R 34 -5 R
34 5 R 31 16 R 25 24 R 16 31 R 5 35 R F
4551 2816 M -5 34 R -16 31 R -25 25 R -31 16 R -34 5 R 0 -111 R 111 0 R F
9589 7693 M -5 34 R -16 31 R -24 25 R -31 15 R -35 6 R -34 -6 R -31 -15 R
-24 -25 R -16 -31 R -6 -34 R 6 -34 R 16 -31 R 24 -25 R 31 -16 R 34 -5 R
35 5 R 31 16 R 24 25 R 16 31 R 5 34 R F
9852 6883 M -5 34 R -16 31 R -25 24 R -31 16 R -34 6 R -34 -6 R -31 -16 R
-25 -24 R -15 -31 R -6 -34 R 6 -35 R 15 -31 R 25 -24 R 31 -16 R 34 -5 R
34 5 R 31 16 R 25 24 R 16 31 R 5 35 R F
16793 10972 M -6 35 R -15 30 R -25 25 R -31 16 R -34 5 R -35 -5 R -31 -16 R
-24 -25 R -16 -30 R -5 -35 R 5 -34 R 16 -31 R 25 -25 R 30 -15 R 35 -6 R
34 6 R 31 15 R 25 25 R 15 31 R 6 34 R F
9747 8374 M -6 34 R -15 31 R -25 24 R -31 16 R -34 6 R -35 -6 R -30 -16 R
-25 -24 R -16 -31 R -5 -34 R 5 -35 R 16 -31 R 25 -24 R 30 -16 R 35 -5 R
34 5 R 31 16 R 25 24 R 15 31 R 6 35 R F
11658 7811 M -6 34 R -16 31 R -24 24 R -31 16 R -34 6 R -35 -6 R -31 -16 R
-24 -24 R -16 -31 R -5 -34 R 5 -35 R 16 -31 R 24 -24 R 31 -16 R 35 -5 R
34 5 R 31 16 R 24 24 R 16 31 R 6 35 R F
9325 7875 M -5 35 R -16 30 R -24 25 R -31 16 R -35 5 R -34 -5 R -31 -16 R
-24 -25 R -16 -30 R -6 -35 R 6 -34 R 16 -31 R 24 -25 R 31 -15 R 34 -6 R
35 6 R 31 15 R 24 25 R 16 31 R 5 34 R F
9402 6212 M -5 34 R -16 31 R -24 24 R -31 16 R -35 6 R -34 -6 R -31 -16 R
-24 -24 R -16 -31 R -6 -34 R 6 -35 R 16 -31 R 24 -24 R 31 -16 R 34 -5 R
35 5 R 31 16 R 24 24 R 16 31 R 5 35 R F
8361 5534 M -5 35 R -16 31 R -25 24 R -31 16 R -34 5 R -34 -5 R -31 -16 R
-25 -24 R -15 -31 R -6 -35 R 6 -34 R 15 -31 R 25 -25 R 31 -15 R 34 -6 R
34 6 R 31 15 R 25 25 R 16 31 R 5 34 R F
18588 12180 M -5 34 R -16 31 R -24 24 R -31 16 R -35 6 R -34 -6 R -31 -16 R
-24 -24 R -16 -31 R -6 -34 R 6 -35 R 16 -31 R 24 -24 R 31 -16 R 34 -5 R
35 5 R 31 16 R 24 24 R 16 31 R 5 35 R F
8974 7634 M -5 34 R -16 31 R -24 25 R -31 15 R -35 6 R -34 -6 R -31 -15 R
-24 -25 R -16 -31 R -6 -34 R 6 -35 R 16 -30 R 24 -25 R 31 -16 R 34 -5 R
35 5 R 31 16 R 24 25 R 16 30 R 5 35 R F
9301 6107 M -6 35 R -15 31 R -25 24 R -31 16 R -34 5 R -34 -5 R -31 -16 R
-25 -24 R -16 -31 R -5 -35 R 5 -34 R 16 -31 R 25 -24 R 31 -16 R 34 -6 R
34 6 R 31 16 R 25 24 R 15 31 R 6 34 R F
9361 6526 M -6 35 R -16 31 R -24 24 R -31 16 R -34 5 R -35 -5 R -31 -16 R
-24 -24 R -16 -31 R -5 -35 R 5 -34 R 16 -31 R 24 -24 R 31 -16 R 35 -6 R
34 6 R 31 16 R 24 24 R 16 31 R 6 34 R F
8422 6155 M -6 34 R -16 31 R -24 25 R -31 15 R -34 6 R -35 -6 R -31 -15 R
-24 -25 R -16 -31 R -5 -34 R 5 -35 R 16 -31 R 24 -24 R 31 -16 R 35 -5 R
34 5 R 31 16 R 24 24 R 16 31 R 6 35 R F
4551 2816 M -5 34 R -16 31 R -25 25 R -31 16 R -34 5 R 0 -111 R 111 0 R F
8746 5420 M -6 35 R -15 31 R -25 24 R -31 16 R -34 5 R -34 -5 R -31 -16 R
-25 -24 R -16 -31 R -5 -35 R 5 -34 R 16 -31 R 25 -24 R 31 -16 R 34 -6 R
34 6 R 31 16 R 25 24 R 15 31 R 6 34 R F
12938 10157 M -5 34 R -16 31 R -24 24 R -31 16 R -35 6 R -34 -6 R -31 -16 R
-25 -24 R -15 -31 R -6 -34 R 6 -35 R 15 -31 R 25 -24 R 31 -16 R 34 -5 R
35 5 R 31 16 R 24 24 R 16 31 R 5 35 R F
7397 4897 M -5 34 R -16 31 R -25 25 R -31 16 R -34 5 R -34 -5 R -31 -16 R
-25 -25 R -16 -31 R -5 -34 R 5 -34 R 16 -31 R 25 -25 R 31 -15 R 34 -6 R
34 6 R 31 15 R 25 25 R 16 31 R 5 34 R F
9501 6598 M -5 34 R -16 31 R -25 24 R -31 16 R -34 6 R -34 -6 R -31 -16 R
-25 -24 R -16 -31 R -5 -34 R 5 -35 R 16 -31 R 25 -24 R 31 -16 R 34 -5 R
34 5 R 31 16 R 25 24 R 16 31 R 5 35 R F
9378 6372 M -6 34 R -15 31 R -25 25 R -31 16 R -34 5 R -35 -5 R -31 -16 R
-24 -25 R -16 -31 R -5 -34 R 5 -34 R 16 -31 R 24 -25 R 31 -15 R 35 -6 R
34 6 R 31 15 R 25 25 R 15 31 R 6 34 R F
8778 6717 M -6 34 R -15 31 R -25 24 R -31 16 R -34 6 R -34 -6 R -31 -16 R
-25 -24 R -16 -31 R -5 -34 R 5 -35 R 16 -31 R 25 -24 R 31 -16 R 34 -5 R
34 5 R 31 16 R 25 24 R 15 31 R 6 35 R F
9330 6304 M -5 35 R -16 31 R -24 24 R -31 16 R -35 5 R -34 -5 R -31 -16 R
-24 -24 R -16 -31 R -6 -35 R 6 -34 R 16 -31 R 24 -24 R 31 -16 R 34 -6 R
35 6 R 31 16 R 24 24 R 16 31 R 5 34 R F
9010 6292 M -6 34 R -16 31 R -24 25 R -31 16 R -34 5 R -35 -5 R -31 -16 R
-24 -25 R -16 -31 R -5 -34 R 5 -34 R 16 -31 R 24 -25 R 31 -15 R 35 -6 R
34 6 R 31 15 R 24 25 R 16 31 R 6 34 R F
19668 12044 M -5 6 R -31 15 R -34 6 R -35 -6 R -31 -15 R -24 -25 R -16 -31 R
-5 -34 R 5 -34 R 16 -31 R 24 -25 R 31 -16 R 35 -5 R 34 5 R 31 16 R 5 5 R F
9178 5677 M -5 34 R -16 31 R -25 25 R -31 15 R -34 6 R -34 -6 R -31 -15 R
-25 -25 R -16 -31 R -5 -34 R 5 -34 R 16 -31 R 25 -25 R 31 -16 R 34 -5 R
34 5 R 31 16 R 25 25 R 16 31 R 5 34 R F
5780 5042 M -6 35 R -15 30 R -25 25 R -31 16 R -34 5 R -34 -5 R -31 -16 R
-25 -25 R -16 -30 R -5 -35 R 5 -34 R 16 -31 R 25 -25 R 31 -15 R 34 -6 R
34 6 R 31 15 R 25 25 R 15 31 R 6 34 R F
7395 5925 M -6 34 R -16 31 R -24 25 R -31 16 R -34 5 R -35 -5 R -31 -16 R
-24 -25 R -16 -31 R -5 -34 R 5 -34 R 16 -31 R 24 -25 R 31 -15 R 35 -6 R
34 6 R 31 15 R 24 25 R 16 31 R 6 34 R F
10288 6619 M -6 34 R -16 31 R -24 25 R -31 16 R -34 5 R -35 -5 R -31 -16 R
-24 -25 R -16 -31 R -5 -34 R 5 -34 R 16 -31 R 24 -25 R 31 -15 R 35 -6 R
34 6 R 31 15 R 24 25 R 16 31 R 6 34 R F
8081 6006 M -5 34 R -16 31 R -24 25 R -31 15 R -35 6 R -34 -6 R -31 -15 R
-24 -25 R -16 -31 R -6 -34 R 6 -35 R 16 -30 R 24 -25 R 31 -16 R 34 -5 R
35 5 R 31 16 R 24 25 R 16 30 R 5 35 R F
8378 5757 M -6 34 R -16 31 R -24 25 R -31 15 R -34 6 R -35 -6 R -31 -15 R
-24 -25 R -16 -31 R -5 -34 R 5 -34 R 16 -31 R 24 -25 R 31 -16 R 35 -5 R
34 5 R 31 16 R 24 25 R 16 31 R 6 34 R F
13336 7361 M -6 34 R -15 31 R -25 25 R -31 16 R -34 5 R -34 -5 R -31 -16 R
-25 -25 R -16 -31 R -5 -34 R 5 -34 R 16 -31 R 25 -25 R 31 -16 R 34 -5 R
34 5 R 31 16 R 25 25 R 15 31 R 6 34 R F
7886 5359 M -5 34 R -16 31 R -25 25 R -31 15 R -34 6 R -34 -6 R -31 -15 R
-25 -25 R -15 -31 R -6 -34 R 6 -34 R 15 -31 R 25 -25 R 31 -16 R 34 -5 R
34 5 R 31 16 R 25 25 R 16 31 R 5 34 R F
4551 2816 M -5 34 R -16 31 R -25 25 R -31 16 R -34 5 R 0 -111 R 111 0 R F
10653 7316 M -5 34 R -16 31 R -25 25 R -31 16 R -34 5 R -34 -5 R -31 -16 R
-25 -25 R -15 -31 R -6 -34 R 6 -34 R 15 -31 R 25 -25 R 31 -15 R 34 -6 R
34 6 R 31 15 R 25 25 R 16 31 R 5 34 R F
9493 6192 M -5 34 R -16 31 R -25 25 R -31 16 R -34 5 R -34 -5 R -31 -16 R
-25 -25 R -16 -31 R -5 -34 R 5 -34 R 16 -31 R 25 -25 R 31 -15 R 34 -6 R
34 6 R 31 15 R 25 25 R 16 31 R 5 34 R F
9276 6142 M -6 35 R -16 31 R -24 24 R -31 16 R -34 5 R -35 -5 R -31 -16 R
-24 -24 R -16 -31 R -5 -35 R 5 -34 R 16 -31 R 24 -24 R 31 -16 R 35 -6 R
34 6 R 31 16 R 24 24 R 16 31 R 6 34 R F
10238 7141 M -5 34 R -16 31 R -25 25 R -30 16 R -35 5 R -34 -5 R -31 -16 R
-25 -25 R -15 -31 R -6 -34 R 6 -34 R 15 -31 R 25 -25 R 31 -16 R 34 -5 R
35 5 R 30 16 R 25 25 R 16 31 R 5 34 R F
13551 10369 M -5 35 R -16 31 R -24 24 R -31 16 R -35 5 R -34 -5 R -31 -16 R
-24 -24 R -16 -31 R -6 -35 R 6 -34 R 16 -31 R 24 -24 R 31 -16 R 34 -6 R
35 6 R 31 16 R 24 24 R 16 31 R 5 34 R F
6728 6563 M -6 34 R -15 31 R -25 24 R -31 16 R -34 6 R -34 -6 R -31 -16 R
-25 -24 R -16 -31 R -5 -34 R 5 -35 R 16 -31 R 25 -24 R 31 -16 R 34 -5 R
34 5 R 31 16 R 25 24 R 15 31 R 6 35 R F
9361 6544 M -6 34 R -16 31 R -24 25 R -31 15 R -34 6 R -35 -6 R -31 -15 R
-24 -25 R -16 -31 R -5 -34 R 5 -35 R 16 -30 R 24 -25 R 31 -16 R 35 -5 R
34 5 R 31 16 R 24 25 R 16 30 R 6 35 R F
13631 7947 M -6 34 R -16 31 R -24 24 R -31 16 R -34 6 R -35 -6 R -31 -16 R
-24 -24 R -16 -31 R -5 -34 R 5 -35 R 16 -31 R 24 -24 R 31 -16 R 35 -5 R
34 5 R 31 16 R 24 24 R 16 31 R 6 35 R F
8974 7584 M -5 35 R -16 31 R -24 24 R -31 16 R -35 5 R -34 -5 R -31 -16 R
-24 -24 R -16 -31 R -6 -35 R 6 -34 R 16 -31 R 24 -24 R 31 -16 R 34 -6 R
35 6 R 31 16 R 24 24 R 16 31 R 5 34 R F
9715 6532 M -5 34 R -16 31 R -25 25 R -31 16 R -34 5 R -34 -5 R -31 -16 R
-25 -25 R -16 -31 R -5 -34 R 5 -34 R 16 -31 R 25 -25 R 31 -16 R 34 -5 R
34 5 R 31 16 R 25 25 R 16 31 R 5 34 R F
14505 8312 M -6 34 R -16 31 R -24 25 R -31 15 R -34 6 R -35 -6 R -31 -15 R
-24 -25 R -16 -31 R -5 -34 R 5 -34 R 16 -31 R 24 -25 R 31 -16 R 35 -5 R
34 5 R 31 16 R 24 25 R 16 31 R 6 34 R F
11124 5931 M -6 35 R -16 31 R -24 24 R -31 16 R -34 5 R -35 -5 R -31 -16 R
-24 -24 R -16 -31 R -5 -35 R 5 -34 R 16 -31 R 24 -24 R 31 -16 R 35 -6 R
34 6 R 31 16 R 24 24 R 16 31 R 6 34 R F
11492 7549 M -5 34 R -16 31 R -24 25 R -31 15 R -35 6 R -34 -6 R -31 -15 R
-24 -25 R -16 -31 R -6 -34 R 6 -34 R 16 -31 R 24 -25 R 31 -16 R 34 -5 R
35 5 R 31 16 R 24 25 R 16 31 R 5 34 R F
12199 8200 M -5 34 R -16 31 R -24 25 R -31 15 R -35 6 R -34 -6 R -31 -15 R
-25 -25 R -15 -31 R -6 -34 R 6 -35 R 15 -30 R 25 -25 R 31 -16 R 34 -5 R
35 5 R 31 16 R 24 25 R 16 30 R 5 35 R F
10010 6703 M -6 34 R -15 31 R -25 25 R -31 16 R -34 5 R -34 -5 R -31 -16 R
-25 -25 R -16 -31 R -5 -34 R 5 -34 R 16 -31 R 25 -25 R 31 -15 R 34 -6 R
34 6 R 31 15 R 25 25 R 15 31 R 6 34 R F
8203 6238 M -5 34 R -16 31 R -24 24 R -31 16 R -35 6 R -34 -6 R -31 -16 R
-24 -24 R -16 -31 R -6 -34 R 6 -35 R 16 -31 R 24 -24 R 31 -16 R 34 -5 R
35 5 R 31 16 R 24 24 R 16 31 R 5 35 R F
9341 6246 M -5 34 R -16 31 R -25 24 R -31 16 R -34 6 R -34 -6 R -31 -16 R
-25 -24 R -15 -31 R -6 -34 R 6 -35 R 15 -31 R 25 -24 R 31 -16 R 34 -5 R
34 5 R 31 16 R 25 24 R 16 31 R 5 35 R F
4551 2816 M -5 34 R -16 31 R -25 25 R -31 16 R -34 5 R 0 -111 R 111 0 R F
9589 7693 M -5 34 R -16 31 R -24 25 R -31 15 R -35 6 R -34 -6 R -31 -15 R
-24 -25 R -16 -31 R -6 -34 R 6 -34 R 16 -31 R 24 -25 R 31 -16 R 34 -5 R
35 5 R 31 16 R 24 25 R 16 31 R 5 34 R F
9852 6883 M -5 34 R -16 31 R -25 24 R -31 16 R -34 6 R -34 -6 R -31 -16 R
-25 -24 R -15 -31 R -6 -34 R 6 -35 R 15 -31 R 25 -24 R 31 -16 R 34 -5 R
34 5 R 31 16 R 25 24 R 16 31 R 5 35 R F
16793 10972 M -6 35 R -15 30 R -25 25 R -31 16 R -34 5 R -35 -5 R -31 -16 R
-24 -25 R -16 -30 R -5 -35 R 5 -34 R 16 -31 R 25 -25 R 30 -15 R 35 -6 R
34 6 R 31 15 R 25 25 R 15 31 R 6 34 R F
9747 8374 M -6 34 R -15 31 R -25 24 R -31 16 R -34 6 R -35 -6 R -30 -16 R
-25 -24 R -16 -31 R -5 -34 R 5 -35 R 16 -31 R 25 -24 R 30 -16 R 35 -5 R
34 5 R 31 16 R 25 24 R 15 31 R 6 35 R F
11658 7811 M -6 34 R -16 31 R -24 24 R -31 16 R -34 6 R -35 -6 R -31 -16 R
-24 -24 R -16 -31 R -5 -34 R 5 -35 R 16 -31 R 24 -24 R 31 -16 R 35 -5 R
34 5 R 31 16 R 24 24 R 16 31 R 6 35 R F
9325 7875 M -5 35 R -16 30 R -24 25 R -31 16 R -35 5 R -34 -5 R -31 -16 R
-24 -25 R -16 -30 R -6 -35 R 6 -34 R 16 -31 R 24 -25 R 31 -15 R 34 -6 R
35 6 R 31 15 R 24 25 R 16 31 R 5 34 R F
9402 6212 M -5 34 R -16 31 R -24 24 R -31 16 R -35 6 R -34 -6 R -31 -16 R
-24 -24 R -16 -31 R -6 -34 R 6 -35 R 16 -31 R 24 -24 R 31 -16 R 34 -5 R
35 5 R 31 16 R 24 24 R 16 31 R 5 35 R F
8361 5534 M -5 35 R -16 31 R -25 24 R -31 16 R -34 5 R -34 -5 R -31 -16 R
-25 -24 R -15 -31 R -6 -35 R 6 -34 R 15 -31 R 25 -25 R 31 -15 R 34 -6 R
34 6 R 31 15 R 25 25 R 16 31 R 5 34 R F
18588 12180 M -5 34 R -16 31 R -24 24 R -31 16 R -35 6 R -34 -6 R -31 -16 R
-24 -24 R -16 -31 R -6 -34 R 6 -35 R 16 -31 R 24 -24 R 31 -16 R 34 -5 R
35 5 R 31 16 R 24 24 R 16 31 R 5 35 R F
8974 7634 M -5 34 R -16 31 R -24 25 R -31 15 R -35 6 R -34 -6 R -31 -15 R
-24 -25 R -16 -31 R -6 -34 R 6 -35 R 16 -30 R 24 -25 R 31 -16 R 34 -5 R
35 5 R 31 16 R 24 25 R 16 30 R 5 35 R F
9301 6107 M -6 35 R -15 31 R -25 24 R -31 16 R -34 5 R -34 -5 R -31 -16 R
-25 -24 R -16 -31 R -5 -35 R 5 -34 R 16 -31 R 25 -24 R 31 -16 R 34 -6 R
34 6 R 31 16 R 25 24 R 15 31 R 6 34 R F
9361 6526 M -6 35 R -16 31 R -24 24 R -31 16 R -34 5 R -35 -5 R -31 -16 R
-24 -24 R -16 -31 R -5 -35 R 5 -34 R 16 -31 R 24 -24 R 31 -16 R 35 -6 R
34 6 R 31 16 R 24 24 R 16 31 R 6 34 R F
8422 6155 M -6 34 R -16 31 R -24 25 R -31 15 R -34 6 R -35 -6 R -31 -15 R
-24 -25 R -16 -31 R -5 -34 R 5 -35 R 16 -31 R 24 -24 R 31 -16 R 35 -5 R
34 5 R 31 16 R 24 24 R 16 31 R 6 35 R F
4551 2816 M -5 34 R -16 31 R -25 25 R -31 16 R -34 5 R 0 -111 R 111 0 R F
8746 5420 M -6 35 R -15 31 R -25 24 R -31 16 R -34 5 R -34 -5 R -31 -16 R
-25 -24 R -16 -31 R -5 -35 R 5 -34 R 16 -31 R 25 -24 R 31 -16 R 34 -6 R
34 6 R 31 16 R 25 24 R 15 31 R 6 34 R F
12938 10157 M -5 34 R -16 31 R -24 24 R -31 16 R -35 6 R -34 -6 R -31 -16 R
-25 -24 R -15 -31 R -6 -34 R 6 -35 R 15 -31 R 25 -24 R 31 -16 R 34 -5 R
35 5 R 31 16 R 24 24 R 16 31 R 5 35 R F
7397 4897 M -5 34 R -16 31 R -25 25 R -31 16 R -34 5 R -34 -5 R -31 -16 R
-25 -25 R -16 -31 R -5 -34 R 5 -34 R 16 -31 R 25 -25 R 31 -15 R 34 -6 R
34 6 R 31 15 R 25 25 R 16 31 R 5 34 R F
9501 6598 M -5 34 R -16 31 R -25 24 R -31 16 R -34 6 R -34 -6 R -31 -16 R
-25 -24 R -16 -31 R -5 -34 R 5 -35 R 16 -31 R 25 -24 R 31 -16 R 34 -5 R
34 5 R 31 16 R 25 24 R 16 31 R 5 35 R F
9378 6372 M -6 34 R -15 31 R -25 25 R -31 16 R -34 5 R -35 -5 R -31 -16 R
-24 -25 R -16 -31 R -5 -34 R 5 -34 R 16 -31 R 24 -25 R 31 -15 R 35 -6 R
34 6 R 31 15 R 25 25 R 15 31 R 6 34 R F
8778 6717 M -6 34 R -15 31 R -25 24 R -31 16 R -34 6 R -34 -6 R -31 -16 R
-25 -24 R -16 -31 R -5 -34 R 5 -35 R 16 -31 R 25 -24 R 31 -16 R 34 -5 R
34 5 R 31 16 R 25 24 R 15 31 R 6 35 R F
9330 6304 M -5 35 R -16 31 R -24 24 R -31 16 R -35 5 R -34 -5 R -31 -16 R
-24 -24 R -16 -31 R -6 -35 R 6 -34 R 16 -31 R 24 -24 R 31 -16 R 34 -6 R
35 6 R 31 16 R 24 24 R 16 31 R 5 34 R F
9010 6292 M -6 34 R -16 31 R -24 25 R -31 16 R -34 5 R -35 -5 R -31 -16 R
-24 -25 R -16 -31 R -5 -34 R 5 -34 R 16 -31 R 24 -25 R 31 -15 R 35 -6 R
34 6 R 31 15 R 24 25 R 16 31 R 6 34 R F
19668 12044 M -5 6 R -31 15 R -34 6 R -35 -6 R -31 -15 R -24 -25 R -16 -31 R
-5 -34 R 5 -34 R 16 -31 R 24 -25 R 31 -16 R 35 -5 R 34 5 R 31 16 R 5 5 R F
9178 5677 M -5 34 R -16 31 R -25 25 R -31 15 R -34 6 R -34 -6 R -31 -15 R
-25 -25 R -16 -31 R -5 -34 R 5 -34 R 16 -31 R 25 -25 R 31 -16 R 34 -5 R
34 5 R 31 16 R 25 25 R 16 31 R 5 34 R F
30 setlinewidth 5669 4959 M 0 166 R D 5669 5042 M Z 7284 5838 M 0 175 R D
7283 5925 M 1 0 R D 10177 6529 M 0 180 R D 9684 6619 M 986 0 R D 7970 5910 M
0 192 R D 7562 6006 M 817 0 R D 8267 5718 M 0 78 R D 8266 5757 M 1 0 R D
13225 7291 M 0 141 R D 12675 7361 M 1100 0 R D 7775 5297 M 0 123 R D
7774 5359 M 2 0 R D 4440 2816 M Z 10542 7269 M 0 94 R D 10184 7316 M 716 0 R
D 9382 6121 M 0 143 R D 8948 6192 M 868 0 R D 9165 6030 M 0 225 R D
8756 6142 M 817 0 R D 10127 6937 M 0 408 R D 10126 7141 M 2 0 R D
13440 10199 M 0 341 R D 12522 10369 M 1836 0 R D 6617 6459 M 0 208 R D
6359 6563 M 516 0 R D 9250 6442 M 0 204 R D 9249 6544 M 1 0 R D 13520 7866 M
0 161 R D 12923 7947 M 1193 0 R D 8863 7166 M 0 836 R D 8863 7584 M 1 0 R D
9604 6439 M 0 186 R D 9180 6532 M 848 0 R D 14394 8219 M 0 185 R D
13698 8312 M 1392 0 R D 11013 5902 M 0 59 R D 10167 5931 M 1691 0 R D
11381 7446 M 0 206 R D 10766 7549 M 1231 0 R D 12088 8073 M 0 254 R D
11432 8200 M 1313 0 R D 9899 6602 M 0 203 R D 9442 6703 M 914 0 R D
8092 6121 M 0 233 R D 7663 6238 M 859 0 R D 9230 6167 M 0 157 R D
8837 6246 M 786 0 R D 4440 2816 M Z 9478 7447 M 0 492 R D 8896 7693 M
1165 0 R D 9741 6714 M 0 337 R D 9740 6883 M 2 0 R D 16682 10795 M 0 354 R D
15618 10972 M 2128 0 R D 9636 8219 M 0 309 R D 9635 8374 M 2 0 R D
11547 7481 M 0 659 R D 10938 7811 M 1217 0 R D 9214 7700 M 0 351 R D
9214 7875 M 1 0 R D 9291 6132 M 0 159 R D 8878 6212 M 827 0 R D 8250 5495 M
0 78 R D 7921 5534 M 658 0 R D 18477 11987 M 0 385 R D 17251 12180 M
2417 0 R D 8863 7530 M 0 207 R D 8863 7634 M 1 0 R D 9190 6028 M 0 159 R D
8775 6107 M 830 0 R D 9250 6152 M 0 749 R D 9249 6526 M 1 0 R D 8311 5976 M
0 357 R D 7892 6155 M 837 0 R D 4440 2816 M Z 8635 5380 M 0 81 R D
8197 5420 M 876 0 R D 12827 10033 M 0 248 R D 11864 10157 M 1927 0 R D
7286 4864 M 0 66 R D 7097 4897 M 378 0 R D 9390 6507 M 0 181 R D 9390 6598 M
Z 9267 6304 M 0 136 R D 8898 6372 M 738 0 R D 8667 6572 M 0 290 R D
8164 6717 M 1006 0 R D 9219 6214 M 0 181 R D 8878 6304 M 683 0 R D
8899 6013 M 0 558 R D 8898 6292 M 1 0 R D 19598 11679 M 0 561 R D
19053 11960 M 615 0 R D 9067 5601 M 0 151 R D 8677 5677 M 780 0 R D
%%PageTrailer
end
%%PageResources: font Helvetica
%%Trailer
%%Pages: 1
%%DocumentNeededResources: font Helvetica
%%EOF
